sim.vcd
$date
	Wed May  3 15:06:35 2023
$end
$version
	Icarus Verilog
$end
$timescale
	10ps
$end
$scope module riscv_tb $end
$var reg 1 ! clk $end
$var reg 1 " rstn $end
$var integer 32 # i [31:0] $end
$scope module my_cpu $end
$var wire 1 ! clk $end
$var wire 1 " rstn $end
$var wire 5 $ writereg [4:0] $end
$var wire 32 % write_data_ [31:0] $end
$var wire 32 & write_data [31:0] $end
$var wire 5 ' wb_writereg [4:0] $end
$var wire 1 ( wb_reg_write $end
$var wire 32 ) wb_read_data [31:0] $end
$var wire 1 * wb_mem_to_reg $end
$var wire 2 + wb_jump [1:0] $end
$var wire 32 , wb_alu_result [31:0] $end
$var wire 32 - wb_PC_PLUS_4 [31:0] $end
$var wire 32 . sextimm [31:0] $end
$var wire 1 / regwrite $end
$var wire 1 0 reg_write $end
$var wire 5 1 readreg2 [4:0] $end
$var wire 5 2 readreg1 [4:0] $end
$var wire 32 3 readdata2 [31:0] $end
$var wire 32 4 readdata1 [31:0] $end
$var wire 32 5 read_data [31:0] $end
$var wire 7 6 opcode [6:0] $end
$var wire 1 7 memwrite $end
$var wire 5 8 mem_writereg [4:0] $end
$var wire 1 9 mem_write $end
$var wire 1 : mem_to_reg $end
$var wire 1 ; mem_taken $end
$var wire 1 < mem_reg_write $end
$var wire 32 = mem_readdata2 [31:0] $end
$var wire 1 > mem_read $end
$var wire 1 ? mem_mem_write $end
$var wire 1 @ mem_mem_to_reg $end
$var wire 1 A mem_mem_read $end
$var wire 2 B mem_jump [1:0] $end
$var wire 32 C mem_jalr_out [31:0] $end
$var wire 3 D mem_funct3 [2:0] $end
$var wire 32 E mem_alu_result [31:0] $end
$var wire 32 F mem_PC_PLUS_4 [31:0] $end
$var wire 32 G mem_PC_BRANCH [31:0] $end
$var wire 2 H maskmode [1:0] $end
$var wire 2 I jump [1:0] $end
$var wire 32 J jalr_out [31:0] $end
$var wire 32 K instruction [31:0] $end
$var wire 32 L id_instruction [31:0] $end
$var wire 32 M id_PC_PLUS_4 [31:0] $end
$var wire 32 N id_PC [31:0] $end
$var wire 7 O funct7 [6:0] $end
$var wire 3 P funct3 [2:0] $end
$var wire 2 Q forwarding_2 [1:0] $end
$var wire 2 R forwarding_1 [1:0] $end
$var wire 1 S flush $end
$var wire 5 T ex_writereg [4:0] $end
$var wire 1 U ex_taken $end
$var wire 32 V ex_sextimm [31:0] $end
$var wire 1 W ex_regwrite $end
$var wire 1 X ex_reg_write $end
$var wire 5 Y ex_readreg2 [4:0] $end
$var wire 5 Z ex_readreg1 [4:0] $end
$var wire 32 [ ex_readdata2 [31:0] $end
$var wire 32 \ ex_readdata1 [31:0] $end
$var wire 1 ] ex_memwrite $end
$var wire 1 ^ ex_mem_write $end
$var wire 1 _ ex_mem_to_reg $end
$var wire 1 ` ex_mem_read $end
$var wire 2 a ex_jump [1:0] $end
$var wire 7 b ex_funct7 [6:0] $end
$var wire 3 c ex_funct3 [2:0] $end
$var wire 1 d ex_branch $end
$var wire 1 e ex_alu_src $end
$var wire 32 f ex_alu_result [31:0] $end
$var wire 2 g ex_alu_op [1:0] $end
$var wire 32 h ex_alu_in2_temp [31:0] $end
$var wire 32 i ex_alu_in2 [31:0] $end
$var wire 32 j ex_alu_in1 [31:0] $end
$var wire 4 k ex_alu_func [3:0] $end
$var wire 1 l ex_alu_check $end
$var wire 32 m ex_PC_PLUS_4 [31:0] $end
$var wire 32 n ex_PC [31:0] $end
$var wire 32 o branch_out [31:0] $end
$var wire 1 p branch $end
$var wire 1 q alu_src $end
$var wire 2 r alu_op [1:0] $end
$var wire 32 s PC_PLUS_4 [31:0] $end
$var wire 32 t PC_BRANCH [31:0] $end
$var wire 32 u NEXT_PC [31:0] $end
$var reg 32 v PC [31:0] $end
$scope module m_adder_for_jalr $end
$var wire 32 w in_b [31:0] $end
$var wire 32 x in_a [31:0] $end
$var reg 32 y result [31:0] $end
$upscope $end
$scope module m_alu $end
$var wire 32 z in_b [31:0] $end
$var wire 32 { in_a [31:0] $end
$var wire 4 | alu_func [3:0] $end
$var reg 1 l check $end
$var reg 32 } result [31:0] $end
$upscope $end
$scope module m_alu_control $end
$var wire 7 ~ funct7 [6:0] $end
$var wire 3 !" funct3 [2:0] $end
$var wire 4 "" funct [3:0] $end
$var wire 2 #" alu_op [1:0] $end
$var reg 4 $" alu_func [3:0] $end
$upscope $end
$scope module m_branch_control $end
$var wire 1 l check $end
$var wire 1 d branch $end
$var reg 1 U taken $end
$upscope $end
$scope module m_branch_target_adder $end
$var wire 32 %" in_b [31:0] $end
$var wire 32 &" in_a [31:0] $end
$var reg 32 '" result [31:0] $end
$upscope $end
$scope module m_control $end
$var wire 7 (" opcode [6:0] $end
$var wire 1 0 reg_write $end
$var wire 1 9 mem_write $end
$var wire 1 : mem_to_reg $end
$var wire 1 > mem_read $end
$var wire 2 )" jump [1:0] $end
$var wire 1 p branch $end
$var wire 1 q alu_src $end
$var wire 2 *" alu_op [1:0] $end
$var reg 10 +" controls [9:0] $end
$upscope $end
$scope module m_data_memory $end
$var wire 1 ! clk $end
$var wire 2 ," maskmode [1:0] $end
$var wire 1 -" sext $end
$var wire 32 ." write_data [31:0] $end
$var wire 1 ? mem_write $end
$var wire 1 A mem_read $end
$var wire 4 /" funct3 [3:0] $end
$var wire 8 0" address_internal [7:0] $end
$var wire 32 1" address [31:0] $end
$var reg 32 2" read_data [31:0] $end
$upscope $end
$scope module m_exmem_reg $end
$var wire 1 ! clk $end
$var wire 32 3" ex_alu_result [31:0] $end
$var wire 32 4" ex_jalr [31:0] $end
$var wire 1 ] ex_memwrite $end
$var wire 32 5" ex_pc_target [31:0] $end
$var wire 1 W ex_regwrite $end
$var wire 1 U ex_taken $end
$var wire 32 6" ex_writedata [31:0] $end
$var wire 5 7" ex_rd [4:0] $end
$var wire 32 8" ex_pc_plus_4 [31:0] $end
$var wire 1 _ ex_memtoreg $end
$var wire 1 ` ex_memread $end
$var wire 2 9" ex_jump [1:0] $end
$var wire 3 :" ex_funct3 [2:0] $end
$var reg 32 ;" mem_alu_result [31:0] $end
$var reg 3 <" mem_funct3 [2:0] $end
$var reg 32 =" mem_jalr [31:0] $end
$var reg 2 >" mem_jump [1:0] $end
$var reg 1 A mem_memread $end
$var reg 1 @ mem_memtoreg $end
$var reg 1 ? mem_memwrite $end
$var reg 32 ?" mem_pc_plus_4 [31:0] $end
$var reg 32 @" mem_pc_target [31:0] $end
$var reg 5 A" mem_rd [4:0] $end
$var reg 1 < mem_regwrite $end
$var reg 1 ; mem_taken $end
$var reg 32 B" mem_writedata [31:0] $end
$upscope $end
$scope module m_flush_mux1 $end
$var wire 32 C" in1 [31:0] $end
$var wire 32 D" in2 [31:0] $end
$var wire 1 S select $end
$var reg 32 E" out [31:0] $end
$upscope $end
$scope module m_flush_mux2 $end
$var wire 32 F" in1 [31:0] $end
$var wire 32 G" in2 [31:0] $end
$var wire 1 S select $end
$var reg 32 H" out [31:0] $end
$upscope $end
$scope module m_flush_mux3 $end
$var wire 32 I" in1 [31:0] $end
$var wire 32 J" in2 [31:0] $end
$var wire 1 S select $end
$var reg 32 K" out [31:0] $end
$upscope $end
$scope module m_flush_mux4 $end
$var wire 32 L" in1 [31:0] $end
$var wire 32 M" in2 [31:0] $end
$var wire 1 S select $end
$var reg 32 N" out [31:0] $end
$upscope $end
$scope module m_forwarding $end
$var wire 1 < mem_reg_write $end
$var wire 5 O" rd_mem [4:0] $end
$var wire 1 ( wb_reg_write $end
$var wire 5 P" rs2_ex [4:0] $end
$var wire 5 Q" rs1_ex [4:0] $end
$var wire 5 R" rd_wb [4:0] $end
$var reg 2 S" forwarding_1 [1:0] $end
$var reg 2 T" forwarding_2 [1:0] $end
$upscope $end
$scope module m_hazard $end
$var wire 32 U" mem_PC_BRANCH [31:0] $end
$var wire 32 V" mem_PC_PLUS_4 [31:0] $end
$var wire 32 W" mem_jalr_out [31:0] $end
$var wire 2 X" mem_jump [1:0] $end
$var wire 1 ; mem_taken $end
$var wire 32 Y" id_pc [31:0] $end
$var reg 1 S flush $end
$upscope $end
$scope module m_idex_reg $end
$var wire 1 ! clk $end
$var wire 2 Z" id_aluop [1:0] $end
$var wire 1 q id_alusrc $end
$var wire 1 p id_branch $end
$var wire 3 [" id_funct3 [2:0] $end
$var wire 7 \" id_funct7 [6:0] $end
$var wire 2 ]" id_jump [1:0] $end
$var wire 1 > id_memread $end
$var wire 1 : id_memtoreg $end
$var wire 1 7 id_memwrite $end
$var wire 5 ^" id_rd [4:0] $end
$var wire 1 / id_regwrite $end
$var wire 5 _" id_rs1 [4:0] $end
$var wire 5 `" id_rs2 [4:0] $end
$var wire 32 a" id_sextimm [31:0] $end
$var wire 32 b" id_readdata2 [31:0] $end
$var wire 32 c" id_readdata1 [31:0] $end
$var wire 32 d" id_pc_plus_4 [31:0] $end
$var wire 32 e" id_PC [31:0] $end
$var reg 32 f" ex_PC [31:0] $end
$var reg 2 g" ex_aluop [1:0] $end
$var reg 1 e ex_alusrc $end
$var reg 1 d ex_branch $end
$var reg 3 h" ex_funct3 [2:0] $end
$var reg 7 i" ex_funct7 [6:0] $end
$var reg 2 j" ex_jump [1:0] $end
$var reg 1 ` ex_memread $end
$var reg 1 _ ex_memtoreg $end
$var reg 1 ^ ex_memwrite $end
$var reg 32 k" ex_pc_plus_4 [31:0] $end
$var reg 5 l" ex_rd [4:0] $end
$var reg 32 m" ex_readdata1 [31:0] $end
$var reg 32 n" ex_readdata2 [31:0] $end
$var reg 1 X ex_regwrite $end
$var reg 5 o" ex_rs1 [4:0] $end
$var reg 5 p" ex_rs2 [4:0] $end
$var reg 32 q" ex_sextimm [31:0] $end
$upscope $end
$scope module m_ifid_reg $end
$var wire 1 ! clk $end
$var wire 32 r" if_PC [31:0] $end
$var wire 32 s" if_pc_plus_4 [31:0] $end
$var wire 32 t" if_instruction [31:0] $end
$var reg 32 u" id_PC [31:0] $end
$var reg 32 v" id_instruction [31:0] $end
$var reg 32 w" id_pc_plus_4 [31:0] $end
$upscope $end
$scope module m_immediate_generator $end
$var wire 32 x" instruction [31:0] $end
$var wire 7 y" opcode [6:0] $end
$var wire 3 z" funct3 [2:0] $end
$var reg 32 {" sextimm [31:0] $end
$upscope $end
$scope module m_instruction_memory $end
$var wire 32 |" address [31:0] $end
$var reg 32 }" instruction [31:0] $end
$upscope $end
$scope module m_memwb_reg $end
$var wire 1 ! clk $end
$var wire 32 ~" mem_alu_result [31:0] $end
$var wire 2 !# mem_jump [1:0] $end
$var wire 1 @ mem_memtoreg $end
$var wire 32 "# mem_pc_plus_4 [31:0] $end
$var wire 5 ## mem_rd [4:0] $end
$var wire 32 $# mem_readdata [31:0] $end
$var wire 1 < mem_regwrite $end
$var reg 32 %# wb_alu_result [31:0] $end
$var reg 2 &# wb_jump [1:0] $end
$var reg 1 * wb_memtoreg $end
$var reg 32 '# wb_pc_plus_4 [31:0] $end
$var reg 5 (# wb_rd [4:0] $end
$var reg 32 )# wb_readdata [31:0] $end
$var reg 1 ( wb_regwrite $end
$upscope $end
$scope module m_mux_2x1 $end
$var wire 32 *# in1 [31:0] $end
$var wire 32 +# in2 [31:0] $end
$var wire 1 e select $end
$var reg 32 ,# out [31:0] $end
$upscope $end
$scope module m_mux_2x1_2 $end
$var wire 32 -# in1 [31:0] $end
$var wire 32 .# in2 [31:0] $end
$var wire 1 * select $end
$var reg 32 /# out [31:0] $end
$upscope $end
$scope module m_mux_2x1_3 $end
$var wire 32 0# in1 [31:0] $end
$var wire 32 1# in2 [31:0] $end
$var wire 1 2# select $end
$var reg 32 3# out [31:0] $end
$upscope $end
$scope module m_mux_2x1_branch $end
$var wire 32 4# in1 [31:0] $end
$var wire 32 5# in2 [31:0] $end
$var wire 1 ; select $end
$var reg 32 6# out [31:0] $end
$upscope $end
$scope module m_mux_3x1 $end
$var wire 32 7# in1 [31:0] $end
$var wire 32 8# in2 [31:0] $end
$var wire 32 9# in3 [31:0] $end
$var wire 2 :# select [1:0] $end
$var reg 32 ;# out [31:0] $end
$upscope $end
$scope module m_mux_3x1_2 $end
$var wire 32 <# in1 [31:0] $end
$var wire 32 =# in2 [31:0] $end
$var wire 32 ># in3 [31:0] $end
$var wire 2 ?# select [1:0] $end
$var reg 32 @# out [31:0] $end
$upscope $end
$scope module m_mux_4x1 $end
$var wire 32 A# in1 [31:0] $end
$var wire 32 B# in2 [31:0] $end
$var wire 32 C# in3 [31:0] $end
$var wire 32 D# in4 [31:0] $end
$var wire 2 E# select [1:0] $end
$var reg 32 F# out [31:0] $end
$upscope $end
$scope module m_pc_plus_4_adder $end
$var wire 32 G# in_a [31:0] $end
$var wire 32 H# in_b [31:0] $end
$var reg 32 I# result [31:0] $end
$upscope $end
$scope module m_register_file $end
$var wire 1 ! clk $end
$var wire 32 J# readdata1 [31:0] $end
$var wire 32 K# readdata2 [31:0] $end
$var wire 5 L# readreg1 [4:0] $end
$var wire 5 M# readreg2 [4:0] $end
$var wire 1 ( wen $end
$var wire 32 N# writedata [31:0] $end
$var wire 5 O# writereg [4:0] $end
$upscope $end
$upscope $end
$upscope $end
$enddefinitions $end
#0
$dumpvars
bx O#
bx N#
bx M#
bx L#
bx K#
bx J#
bx I#
b100 H#
bx G#
bx F#
bx E#
bx D#
bx C#
bx B#
bx A#
bx @#
bx ?#
bx >#
bx =#
bx <#
bx ;#
bx :#
bx 9#
bx 8#
bx 7#
bx 6#
bx 5#
bx 4#
bx 3#
x2#
bx 1#
bx 0#
bx /#
bx .#
bx -#
bx ,#
bx +#
bx *#
bx )#
bx (#
bx '#
bx &#
bx %#
b0 $#
bx ##
bx "#
bx !#
bx ~"
bx }"
bx |"
bx {"
bx z"
bx y"
bx x"
bx w"
bx v"
bx u"
bx t"
bx s"
bx r"
bx q"
bx p"
bx o"
bx n"
bx m"
bx l"
bx k"
bx j"
bx i"
bx h"
bx g"
bx f"
bx e"
bx d"
bx c"
bx b"
bx a"
bx `"
bx _"
bx ^"
bx ]"
bx \"
bx ["
bx Z"
bx Y"
bx X"
bx W"
bx V"
bx U"
bx T"
bx S"
bx R"
bx Q"
bx P"
bx O"
b0 N"
b0 M"
b0x L"
b0 K"
b0 J"
b0x I"
b0 H"
b0 G"
b0x F"
b0 E"
b0 D"
b0x C"
bx B"
bx A"
bx @"
bx ?"
bx >"
bx ="
bx <"
bx ;"
bx :"
bx 9"
bx 8"
bx 7"
bx 6"
bx 5"
bx 4"
bx 3"
b0 2"
bx 1"
bx 0"
b0xxx /"
bx ."
x-"
bx ,"
bx +"
bx *"
bx )"
bx ("
bx '"
bx &"
bx %"
bx $"
bx #"
bx ""
bx !"
bx ~
bx }
bx |
bx {
bx z
bx y
bx x
bx w
bx v
bx u
bx t
bx s
bx r
xq
xp
bx o
bx n
bx m
xl
bx k
bx j
bx i
bx h
bx g
bx f
xe
xd
bx c
bx b
bx a
x`
x_
x^
0]
bx \
bx [
bx Z
bx Y
xX
0W
bx V
xU
bx T
xS
bx R
bx Q
bx P
bx O
bx N
bx M
bx L
bx K
bx J
bx I
bx H
bx G
bx F
bx E
bx D
bx C
bx B
xA
x@
x?
x>
bx =
x<
x;
x:
x9
bx 8
07
bx 6
b0 5
bx 4
bx 3
bx 2
bx 1
x0
0/
bx .
bx -
bx ,
bx +
x*
bx )
x(
bx '
bx &
bx %
bx $
bx #
0"
0!
$end
#500
b0 &
b0 3#
b0 8#
b0 =#
b0 N#
b0 Q
b0 T"
b0 ?#
b0 R
b0 S"
b0 :#
b0 %
b0 /#
b0 0#
b0 K
b0 t"
b0 }"
b100 s
b100 s"
b100 I#
b0 L"
0X
b0 I"
0^
0<
0?
b0 )
b0 )#
b0 .#
b0 v
b0 r"
b0 |"
b0 G#
1!
#1000
0!
#1500
b0 I
b0 )"
b0 ]"
0p
0>
0:
b0 r
b0 *"
b0 Z"
b0 C"
09
0q
b0 F"
00
b0 +"
b0 .
b0 a"
b0 {"
b0 y"
b0 z"
b0 $
b0 ^"
b0 3
b0 b"
b0 K#
b0 1
b0 `"
b0 M#
b0 4
b0 c"
b0 J#
b0 2
b0 _"
b0 L#
b0 P
b0 ["
b0 O
b0 \"
b0 6
b0 ("
0(
b0 L
b0 v"
b0 x"
b100 M
b100 d"
b100 w"
b0 N
b0 Y"
b0 e"
b0 u"
1!
#2000
0!
#2500
b0 f
b0 }
b0 3"
b0 i
b0 z
b0 @#
0l
b0 j
b0 {
b0 ;#
b0 J
b0 y
b0 4"
b0 h
b0 ,#
b0 <#
b0 k
b0 |
b0 $"
0U
b0 t
b0 '"
b0 5"
b0 T
b0 7"
b0 l"
b0 Y
b0 P"
b0 p"
b0 Z
b0 Q"
b0 o"
b0 [
b0 6"
b0 n"
b0 *#
b0 \
b0 w
b0 m"
b0 7#
b0 ""
b0 c
b0 !"
b0 :"
b0 h"
b0 b
b0 ~
b0 i"
b0 V
b0 x
b0 %"
b0 q"
b0 +#
0_
0`
0e
b0 g
b0 #"
b0 g"
0d
b0 a
b0 9"
b0 j"
b100 m
b100 8"
b100 k"
b0 n
b0 &"
b0 f"
1!
#3000
0!
#3500
b0 0"
0-"
b0 /"
b0 H
b0 ,"
0S
b100 u
b100 F#
b100 o
b100 6#
b100 A#
b100 B#
b0 C
b0 ="
b0 W"
b0 D#
b0 8
b0 A"
b0 O"
b0 ##
b0 =
b0 ."
b0 B"
b0 E
b0 1"
b0 ;"
b0 ~"
b0 9#
b0 >#
b0 D
b0 <"
0@
0A
b0 B
b0 >"
b0 X"
b0 !#
b0 E#
0;
b0 G
b0 @"
b0 U"
b0 5#
b0 C#
b100 F
b100 ?"
b100 V"
b100 "#
b100 4#
1!
#4000
0!
#4500
02#
b0 '
b0 R"
b0 (#
b0 O#
b0 ,
b0 %#
b0 -#
0*
b0 +
b0 &#
b100 -
b100 '#
b100 1#
1!
#5000
0!
#5500
1!
#6000
0!
1"
#6500
b1000010000000000000001101111 K
b1000010000000000000001101111 t"
b1000010000000000000001101111 }"
b1000 s
b1000 s"
b1000 I#
b100 v
b100 r"
b100 |"
b100 G#
1!
#7000
0!
#7500
1/
b1 H"
b10 I
b10 )"
b10 ]"
b1 F"
10
b1000000001 +"
b10000100 .
b10000100 a"
b10000100 {"
b1101111 y"
b100 1
b100 `"
b100 M#
b100 O
b100 \"
b1101111 6
b1101111 ("
b1000010000000000000001101111 L
b1000010000000000000001101111 v"
b1000010000000000000001101111 x"
b1000 M
b1000 d"
b1000 w"
b100 N
b100 Y"
b100 e"
b100 u"
1!
#8000
0!
#8500
1W
b10000100 J
b10000100 y
b10000100 4"
b1 N"
b10001000 t
b10001000 '"
b10001000 5"
b100 Y
b100 P"
b100 p"
b100 b
b100 ~
b100 i"
b10000100 V
b10000100 x
b10000100 %"
b10000100 q"
b10000100 +#
b1 L"
1X
b10 a
b10 9"
b10 j"
b1000 m
b1000 8"
b1000 k"
b100 n
b100 &"
b100 f"
1!
#9000
0!
#9500
0/
0W
b0 H"
b0 N"
1S
b10001000 u
b10001000 F#
b1000 o
b1000 6#
b1000 A#
b1000 B#
b10000100 C
b10000100 ="
b10000100 W"
b10000100 D#
1<
b10 B
b10 >"
b10 X"
b10 !#
b10 E#
b10001000 G
b10001000 @"
b10001000 U"
b10001000 5#
b10001000 C#
b1000 F
b1000 ?"
b1000 V"
b1000 "#
b1000 4#
1!
#10000
0!
#10500
b1000 &
b1000 3#
b1000 8#
b1000 =#
b1000 N#
12#
b11111110000000010000000100010011 K
b11111110000000010000000100010011 t"
b11111110000000010000000100010011 }"
b10001100 s
b10001100 s"
b10001100 I#
b0 L"
0X
0<
1(
b10 +
b10 &#
b1000 -
b1000 '#
b1000 1#
b10001000 v
b10001000 r"
b10001000 |"
b10001000 G#
1!
#11000
b0 4
b0 c"
b0 J#
0!
#11500
b0 I
b0 )"
b0 ]"
b11 r
b11 *"
b11 Z"
1q
b11011 +"
b11111111111111111111111111100000 .
b11111111111111111111111111100000 a"
b11111111111111111111111111100000 {"
b10011 y"
b10 $
b10 ^"
b0 1
b0 `"
b0 M#
b1000000000 4
b1000000000 c"
b1000000000 J#
b10 2
b10 _"
b10 L#
b1111111 O
b1111111 \"
b10011 6
b10011 ("
0(
b11111110000000010000000100010011 L
b11111110000000010000000100010011 v"
b11111110000000010000000100010011 x"
b10001100 M
b10001100 d"
b10001100 w"
b10001000 N
b10001000 Y"
b10001000 e"
b10001000 u"
1!
#12000
0!
#12500
b111100000 f
b111100000 }
b111100000 3"
b11111111111111111111111111100000 i
b11111111111111111111111111100000 z
b11111111111111111111111111100000 @#
b1000000000 j
b1000000000 {
b1000000000 ;#
b1000 ""
b111100000 J
b111100000 y
b111100000 4"
b11111111111111111111111111100000 h
b11111111111111111111111111100000 ,#
b11111111111111111111111111100000 <#
b1101000 t
b1101000 '"
b1101000 5"
b10 T
b10 7"
b10 l"
b0 Y
b0 P"
b0 p"
b10 Z
b10 Q"
b10 o"
b1000000000 \
b1000000000 w
b1000000000 m"
b1000000000 7#
b1111111 b
b1111111 ~
b1111111 i"
b11111111111111111111111111100000 V
b11111111111111111111111111100000 x
b11111111111111111111111111100000 %"
b11111111111111111111111111100000 q"
b11111111111111111111111111100000 +#
1e
b11 g
b11 #"
b11 g"
b0 a
b0 9"
b0 j"
b10001100 m
b10001100 8"
b10001100 k"
b10001000 n
b10001000 &"
b10001000 f"
1!
#13000
0!
#13500
1/
b1 H"
b1111000 0"
0S
b10001100 u
b10001100 F#
b10001100 o
b10001100 6#
b10001100 A#
b10001100 B#
b111100000 C
b111100000 ="
b111100000 W"
b111100000 D#
b10 8
b10 A"
b10 O"
b10 ##
b111100000 E
b111100000 1"
b111100000 ;"
b111100000 ~"
b111100000 9#
b111100000 >#
b0 B
b0 >"
b0 X"
b0 !#
b0 E#
b1101000 G
b1101000 @"
b1101000 U"
b1101000 5#
b1101000 C#
b10001100 F
b10001100 ?"
b10001100 V"
b10001100 "#
b10001100 4#
1!
#14000
0!
#14500
1W
b1 N"
b111100000 %
b111100000 /#
b111100000 0#
02#
b111100000 &
b111100000 3#
b111100000 8#
b111100000 =#
b111100000 N#
b100010010111000100011 K
b100010010111000100011 t"
b100010010111000100011 }"
b10010000 s
b10010000 s"
b10010000 I#
b1 L"
1X
b10 '
b10 R"
b10 (#
b10 O#
b111100000 ,
b111100000 %#
b111100000 -#
b0 +
b0 &#
b10001100 -
b10001100 '#
b10001100 1#
b10001100 v
b10001100 r"
b10001100 |"
b10001100 G#
1!
#15000
0!
#15500
17
0/
b1 E"
b0 H"
b111000000 f
b111000000 }
b111000000 3"
1:
b0 r
b0 *"
b0 Z"
b1 C"
19
b0 F"
00
b111100000 j
b111100000 {
b111100000 ;#
b100110 +"
b10 R
b10 S"
b10 :#
b11100 .
b11100 a"
b11100 {"
b100011 y"
b10 z"
b11100 $
b11100 ^"
b1 1
b1 `"
b1 M#
b10 P
b10 ["
b0 O
b0 \"
b100011 6
b100011 ("
1<
b100010010111000100011 L
b100010010111000100011 v"
b100010010111000100011 x"
b10010000 M
b10010000 d"
b10010000 w"
b10001100 N
b10001100 Y"
b10001100 e"
b10001100 u"
1!
#16000
0!
#16500
b11100 i
b11100 z
b11100 @#
0W
1]
b111011100 f
b111011100 }
b111011100 3"
b1000011100 J
b1000011100 y
b1000011100 4"
b11100 h
b11100 ,#
b11100 <#
b0 N"
b1 K"
b10101000 t
b10101000 '"
b10101000 5"
b1110000 0"
b111000000 j
b111000000 {
b111000000 ;#
b11100 T
b11100 7"
b11100 l"
b1 Y
b1 P"
b1 p"
b10 ""
b10 c
b10 !"
b10 :"
b10 h"
b0 b
b0 ~
b0 i"
b11100 V
b11100 x
b11100 %"
b11100 q"
b11100 +#
b0 L"
0X
1_
b1 I"
1^
b0 g
b0 #"
b0 g"
b10010000 m
b10010000 8"
b10010000 k"
b10001100 n
b10001100 &"
b10001100 f"
b111000000 E
b111000000 1"
b111000000 ;"
b111000000 ~"
b111000000 9#
b111000000 >#
1(
1!
#17000
b111100000 4
b111100000 c"
b111100000 J#
0!
#17500
b111000000 &
b111000000 3#
b111000000 8#
b111000000 =#
b111000000 N#
b111011100 f
b111011100 }
b111011100 3"
b111000000 %
b111000000 /#
b111000000 0#
b1110111 0"
b10 /"
b10 H
b10 ,"
b1 R
b1 S"
b1 :#
b10010000 u
b10010000 F#
b10010000 o
b10010000 6#
b10010000 A#
b10010000 B#
b111111100 J
b111111100 y
b111111100 4"
b111000000 j
b111000000 {
b111000000 ;#
b111000000 ,
b111000000 %#
b111000000 -#
b1000011100 C
b1000011100 ="
b1000011100 W"
b1000011100 D#
b11100 8
b11100 A"
b11100 O"
b11100 ##
b111011100 E
b111011100 1"
b111011100 ;"
b111011100 ~"
b111011100 9#
b111011100 >#
b10 D
b10 <"
0<
1@
1?
b10101000 G
b10101000 @"
b10101000 U"
b10101000 5#
b10101000 C#
b10010000 F
b10010000 ?"
b10010000 V"
b10010000 "#
b10010000 4#
b111100000 \
b111100000 w
b111100000 m"
b111100000 7#
1!
#18000
b111000000 4
b111000000 c"
b111000000 J#
0!
#18500
b0 &
b0 3#
b0 8#
b0 =#
b0 N#
b111011100 J
b111011100 y
b111011100 4"
b0 R
b0 S"
b0 :#
b0 %
b0 /#
b0 0#
b100000010010110000100011 K
b100000010010110000100011 t"
b100000010010110000100011 }"
b10010100 s
b10010100 s"
b10010100 I#
b111000000 \
b111000000 w
b111000000 m"
b111000000 7#
b111111100 C
b111111100 ="
b111111100 W"
b111111100 D#
b11100 '
b11100 R"
b11100 (#
b11100 O#
b111011100 ,
b111011100 %#
b111011100 -#
0(
1*
b10010000 -
b10010000 '#
b10010000 1#
b10010000 v
b10010000 r"
b10010000 |"
b10010000 G#
1!
#19000
0!
#19500
b11000 .
b11000 a"
b11000 {"
b11000 $
b11000 ^"
b1000 1
b1000 `"
b1000 M#
b111011100 C
b111011100 ="
b111011100 W"
b111011100 D#
b100000010010110000100011 L
b100000010010110000100011 v"
b100000010010110000100011 x"
b10010100 M
b10010100 d"
b10010100 w"
b10010000 N
b10010000 Y"
b10010000 e"
b10010000 u"
1!
#20000
0!
#20500
b111011000 f
b111011000 }
b111011000 3"
b11000 i
b11000 z
b11000 @#
b111011000 J
b111011000 y
b111011000 4"
b11000 h
b11000 ,#
b11000 <#
b11000 T
b11000 7"
b11000 l"
b1000 Y
b1000 P"
b1000 p"
b11000 V
b11000 x
b11000 %"
b11000 q"
b11000 +#
b10010100 m
b10010100 8"
b10010100 k"
b10010000 n
b10010000 &"
b10010000 f"
1!
#21000
0!
#21500
b10010100 u
b10010100 F#
b1110110 0"
b10010100 o
b10010100 6#
b10010100 A#
b10010100 B#
b111011000 C
b111011000 ="
b111011000 W"
b111011000 D#
b11000 8
b11000 A"
b11000 O"
b11000 ##
b111011000 E
b111011000 1"
b111011000 ;"
b111011000 ~"
b111011000 9#
b111011000 >#
b10010100 F
b10010100 ?"
b10010100 V"
b10010100 "#
b10010100 4#
1!
#22000
0!
#22500
b10000000010000010000010011 K
b10000000010000010000010011 t"
b10000000010000010000010011 }"
b10011000 s
b10011000 s"
b10011000 I#
b11000 '
b11000 R"
b11000 (#
b11000 O#
b111011000 ,
b111011000 %#
b111011000 -#
b10010100 -
b10010100 '#
b10010100 1#
b10010100 v
b10010100 r"
b10010100 |"
b10010100 G#
1!
#23000
0!
#23500
07
1/
b0 E"
b1 H"
0:
b11 r
b11 *"
b11 Z"
b0 C"
09
b1 F"
10
b11011 +"
b100000 .
b100000 a"
b100000 {"
b10011 y"
b0 z"
b1000 $
b1000 ^"
b0 1
b0 `"
b0 M#
b0 P
b0 ["
b1 O
b1 \"
b10011 6
b10011 ("
b10000000010000010000010011 L
b10000000010000010000010011 v"
b10000000010000010000010011 x"
b10011000 M
b10011000 d"
b10011000 w"
b10010100 N
b10010100 Y"
b10010100 e"
b10010100 u"
1!
#24000
0!
#24500
b111100000 f
b111100000 }
b111100000 3"
b100000 i
b100000 z
b100000 @#
1W
0]
b111100000 J
b111100000 y
b111100000 4"
b100000 h
b100000 ,#
b100000 <#
b1 N"
b0 K"
b10110100 t
b10110100 '"
b10110100 5"
b1000 T
b1000 7"
b1000 l"
b0 Y
b0 P"
b0 p"
b0 ""
b0 c
b0 !"
b0 :"
b0 h"
b1 b
b1 ~
b1 i"
b100000 V
b100000 x
b100000 %"
b100000 q"
b100000 +#
b1 L"
1X
0_
b0 I"
0^
b11 g
b11 #"
b11 g"
b10011000 m
b10011000 8"
b10011000 k"
b10010100 n
b10010100 &"
b10010100 f"
1!
#25000
0!
#25500
b1111000 0"
b0 /"
b0 H
b0 ,"
b10011000 u
b10011000 F#
b10011000 o
b10011000 6#
b10011000 A#
b10011000 B#
b111100000 C
b111100000 ="
b111100000 W"
b111100000 D#
b1000 8
b1000 A"
b1000 O"
b1000 ##
b111100000 E
b111100000 1"
b111100000 ;"
b111100000 ~"
b111100000 9#
b111100000 >#
b0 D
b0 <"
1<
0@
0?
b10110100 G
b10110100 @"
b10110100 U"
b10110100 5#
b10110100 C#
b10011000 F
b10011000 ?"
b10011000 V"
b10011000 "#
b10011000 4#
1!
#26000
0!
#26500
b111100000 &
b111100000 3#
b111100000 8#
b111100000 =#
b111100000 N#
b111100000 %
b111100000 /#
b111100000 0#
b1100000000011110010011 K
b1100000000011110010011 t"
b1100000000011110010011 }"
b10011100 s
b10011100 s"
b10011100 I#
b1000 '
b1000 R"
b1000 (#
b1000 O#
b111100000 ,
b111100000 %#
b111100000 -#
1(
0*
b10011000 -
b10011000 '#
b10011000 1#
b10011000 v
b10011000 r"
b10011000 |"
b10011000 G#
1!
#27000
0!
