sim.vcd
$date
	Fri May  5 16:11:31 2023
$end
$version
	Icarus Verilog
$end
$timescale
	10ps
$end
$scope module riscv_tb $end
$var reg 1 ! clk $end
$var reg 1 " rstn $end
$var integer 32 # i [31:0] $end
$scope module my_cpu $end
$var wire 32 $ NEXT_PC_ [31:0] $end
$var wire 1 ! clk $end
$var wire 1 " rstn $end
$var wire 5 % writereg [4:0] $end
$var wire 32 & write_data_ [31:0] $end
$var wire 32 ' write_data [31:0] $end
$var wire 5 ( wb_writereg [4:0] $end
$var wire 1 ) wb_reg_write $end
$var wire 32 * wb_read_data [31:0] $end
$var wire 1 + wb_mem_to_reg $end
$var wire 2 , wb_jump [1:0] $end
$var wire 32 - wb_alu_result [31:0] $end
$var wire 32 . wb_PC_PLUS_4 [31:0] $end
$var wire 1 / stall $end
$var wire 32 0 sextimm [31:0] $end
$var wire 1 1 reg_write $end
$var wire 5 2 readreg2 [4:0] $end
$var wire 5 3 readreg1 [4:0] $end
$var wire 32 4 readdata2 [31:0] $end
$var wire 32 5 readdata1 [31:0] $end
$var wire 32 6 read_data [31:0] $end
$var wire 7 7 opcode [6:0] $end
$var wire 5 8 mem_writereg [4:0] $end
$var wire 1 9 mem_write $end
$var wire 1 : mem_to_reg $end
$var wire 1 ; mem_taken $end
$var wire 1 < mem_reg_write $end
$var wire 32 = mem_readdata2 [31:0] $end
$var wire 1 > mem_read $end
$var wire 1 ? mem_mem_write $end
$var wire 1 @ mem_mem_to_reg $end
$var wire 1 A mem_mem_read $end
$var wire 2 B mem_jump [1:0] $end
$var wire 32 C mem_jalr_out [31:0] $end
$var wire 3 D mem_funct3 [2:0] $end
$var wire 32 E mem_alu_result [31:0] $end
$var wire 32 F mem_PC_PLUS_4 [31:0] $end
$var wire 32 G mem_PC_BRANCH [31:0] $end
$var wire 2 H maskmode [1:0] $end
$var wire 2 I jump [1:0] $end
$var wire 32 J jalr_out [31:0] $end
$var wire 32 K instruction [31:0] $end
$var wire 32 L id_instruction [31:0] $end
$var wire 32 M id_PC_PLUS_4 [31:0] $end
$var wire 32 N id_PC [31:0] $end
$var wire 7 O funct7 [6:0] $end
$var wire 3 P funct3 [2:0] $end
$var wire 2 Q forwarding_2 [1:0] $end
$var wire 2 R forwarding_1 [1:0] $end
$var wire 1 S flush $end
$var wire 5 T ex_writereg [4:0] $end
$var wire 1 U ex_taken $end
$var wire 1 V ex_stall $end
$var wire 32 W ex_sextimm [31:0] $end
$var wire 1 X ex_reg_write $end
$var wire 5 Y ex_readreg2 [4:0] $end
$var wire 5 Z ex_readreg1 [4:0] $end
$var wire 32 [ ex_readdata2 [31:0] $end
$var wire 32 \ ex_readdata1 [31:0] $end
$var wire 1 ] ex_mem_write $end
$var wire 1 ^ ex_mem_to_reg $end
$var wire 1 _ ex_mem_read $end
$var wire 2 ` ex_jump [1:0] $end
$var wire 7 a ex_funct7 [6:0] $end
$var wire 3 b ex_funct3 [2:0] $end
$var wire 1 c ex_flush $end
$var wire 1 d ex_branch $end
$var wire 1 e ex_alu_src $end
$var wire 32 f ex_alu_result [31:0] $end
$var wire 2 g ex_alu_op [1:0] $end
$var wire 32 h ex_alu_in2_temp [31:0] $end
$var wire 32 i ex_alu_in2 [31:0] $end
$var wire 32 j ex_alu_in1 [31:0] $end
$var wire 4 k ex_alu_func [3:0] $end
$var wire 1 l ex_alu_check $end
$var wire 32 m ex_PC_PLUS_4 [31:0] $end
$var wire 32 n ex_PC [31:0] $end
$var wire 32 o ex_NEXT_PC_ [31:0] $end
$var wire 1 p branch $end
$var wire 1 q alu_src $end
$var wire 2 r alu_op [1:0] $end
$var wire 32 s PC_PLUS_4 [31:0] $end
$var wire 32 t PC_BRANCH [31:0] $end
$var wire 32 u NEXT_PC [31:0] $end
$var reg 32 v PC [31:0] $end
$scope module m_adder_for_jalr $end
$var wire 32 w in_b [31:0] $end
$var wire 32 x in_a [31:0] $end
$var reg 32 y result [31:0] $end
$upscope $end
$scope module m_alu $end
$var wire 32 z in_b [31:0] $end
$var wire 32 { in_a [31:0] $end
$var wire 4 | alu_func [3:0] $end
$var reg 1 l check $end
$var reg 32 } result [31:0] $end
$upscope $end
$scope module m_alu_control $end
$var wire 7 ~ funct7 [6:0] $end
$var wire 3 !" funct3 [2:0] $end
$var wire 4 "" funct [3:0] $end
$var wire 2 #" alu_op [1:0] $end
$var reg 4 $" alu_func [3:0] $end
$upscope $end
$scope module m_branch_control $end
$var wire 1 l check $end
$var wire 1 d branch $end
$var reg 1 U taken $end
$upscope $end
$scope module m_branch_target_adder $end
$var wire 32 %" in_b [31:0] $end
$var wire 32 &" in_a [31:0] $end
$var reg 32 '" result [31:0] $end
$upscope $end
$scope module m_control $end
$var wire 7 (" opcode [6:0] $end
$var wire 1 1 reg_write $end
$var wire 1 9 mem_write $end
$var wire 1 : mem_to_reg $end
$var wire 1 > mem_read $end
$var wire 2 )" jump [1:0] $end
$var wire 1 p branch $end
$var wire 1 q alu_src $end
$var wire 2 *" alu_op [1:0] $end
$var reg 10 +" controls [9:0] $end
$upscope $end
$scope module m_data_memory $end
$var wire 1 ! clk $end
$var wire 2 ," maskmode [1:0] $end
$var wire 1 -" sext $end
$var wire 32 ." write_data [31:0] $end
$var wire 1 ? mem_write $end
$var wire 1 A mem_read $end
$var wire 4 /" funct3 [3:0] $end
$var wire 8 0" address_internal [7:0] $end
$var wire 32 1" address [31:0] $end
$var reg 32 2" read_data [31:0] $end
$upscope $end
$scope module m_exmem_reg $end
$var wire 1 ! clk $end
$var wire 32 3" ex_alu_result [31:0] $end
$var wire 32 4" ex_jalr [31:0] $end
$var wire 32 5" ex_pc_target [31:0] $end
$var wire 1 U ex_taken $end
$var wire 32 6" ex_writedata [31:0] $end
$var wire 1 X ex_regwrite $end
$var wire 5 7" ex_rd [4:0] $end
$var wire 32 8" ex_pc_plus_4 [31:0] $end
$var wire 1 ] ex_memwrite $end
$var wire 1 ^ ex_memtoreg $end
$var wire 1 _ ex_memread $end
$var wire 2 9" ex_jump [1:0] $end
$var wire 3 :" ex_funct3 [2:0] $end
$var reg 32 ;" mem_alu_result [31:0] $end
$var reg 3 <" mem_funct3 [2:0] $end
$var reg 32 =" mem_jalr [31:0] $end
$var reg 2 >" mem_jump [1:0] $end
$var reg 1 A mem_memread $end
$var reg 1 @ mem_memtoreg $end
$var reg 1 ? mem_memwrite $end
$var reg 32 ?" mem_pc_plus_4 [31:0] $end
$var reg 32 @" mem_pc_target [31:0] $end
$var reg 5 A" mem_rd [4:0] $end
$var reg 1 < mem_regwrite $end
$var reg 1 ; mem_taken $end
$var reg 32 B" mem_writedata [31:0] $end
$upscope $end
$scope module m_forwarding $end
$var wire 1 < mem_reg_write $end
$var wire 5 C" rd_mem [4:0] $end
$var wire 1 ) wb_reg_write $end
$var wire 5 D" rs2_ex [4:0] $end
$var wire 5 E" rs1_ex [4:0] $end
$var wire 5 F" rd_wb [4:0] $end
$var reg 2 G" forwarding_1 [1:0] $end
$var reg 2 H" forwarding_2 [1:0] $end
$upscope $end
$scope module m_hazard $end
$var wire 32 I" ex_PC_BRANCH [31:0] $end
$var wire 32 J" ex_jalr_out [31:0] $end
$var wire 1 U ex_taken $end
$var wire 5 K" id_rs1 [4:0] $end
$var wire 5 L" id_rs2 [4:0] $end
$var wire 32 M" jalr_out [31:0] $end
$var wire 32 N" pc [31:0] $end
$var wire 32 O" pc_plus_4 [31:0] $end
$var wire 5 P" ex_writereg [4:0] $end
$var wire 1 _ ex_mem_read $end
$var wire 2 Q" ex_jump [1:0] $end
$var wire 32 R" ex_PC_PLUS_4 [31:0] $end
$var reg 32 S" NEXT_PC [31:0] $end
$var reg 1 S flush $end
$var reg 1 / stall $end
$var reg 1 T" stall_reg_position $end
$upscope $end
$scope module m_idex_reg $end
$var wire 32 U" NEXT_PC_ [31:0] $end
$var wire 1 ! clk $end
$var wire 1 S flush $end
$var wire 2 V" id_aluop [1:0] $end
$var wire 1 q id_alusrc $end
$var wire 1 p id_branch $end
$var wire 3 W" id_funct3 [2:0] $end
$var wire 7 X" id_funct7 [6:0] $end
$var wire 2 Y" id_jump [1:0] $end
$var wire 1 > id_memread $end
$var wire 1 : id_memtoreg $end
$var wire 1 9 id_memwrite $end
$var wire 5 Z" id_rd [4:0] $end
$var wire 1 1 id_regwrite $end
$var wire 5 [" id_rs1 [4:0] $end
$var wire 5 \" id_rs2 [4:0] $end
$var wire 1 / stall $end
$var wire 32 ]" id_sextimm [31:0] $end
$var wire 32 ^" id_readdata2 [31:0] $end
$var wire 32 _" id_readdata1 [31:0] $end
$var wire 32 `" id_pc_plus_4 [31:0] $end
$var wire 32 a" id_PC [31:0] $end
$var reg 32 b" ex_NEXT_PC_ [31:0] $end
$var reg 32 c" ex_PC [31:0] $end
$var reg 2 d" ex_aluop [1:0] $end
$var reg 1 e ex_alusrc $end
$var reg 1 d ex_branch $end
$var reg 1 c ex_flush $end
$var reg 3 e" ex_funct3 [2:0] $end
$var reg 7 f" ex_funct7 [6:0] $end
$var reg 2 g" ex_jump [1:0] $end
$var reg 1 _ ex_memread $end
$var reg 1 ^ ex_memtoreg $end
$var reg 1 ] ex_memwrite $end
$var reg 32 h" ex_pc_plus_4 [31:0] $end
$var reg 5 i" ex_rd [4:0] $end
$var reg 32 j" ex_readdata1 [31:0] $end
$var reg 32 k" ex_readdata2 [31:0] $end
$var reg 1 X ex_regwrite $end
$var reg 5 l" ex_rs1 [4:0] $end
$var reg 5 m" ex_rs2 [4:0] $end
$var reg 32 n" ex_sextimm [31:0] $end
$var reg 1 V ex_stall $end
$upscope $end
$scope module m_ifid_reg $end
$var wire 1 ! clk $end
$var wire 32 o" id_PC_forstall [31:0] $end
$var wire 32 p" id_instruction_forstall [31:0] $end
$var wire 32 q" id_pc_plus_4_forstall [31:0] $end
$var wire 32 r" if_PC [31:0] $end
$var wire 1 / stall $end
$var wire 32 s" if_pc_plus_4 [31:0] $end
$var wire 32 t" if_instruction [31:0] $end
$var reg 32 u" id_PC [31:0] $end
$var reg 32 v" id_instruction [31:0] $end
$var reg 32 w" id_pc_plus_4 [31:0] $end
$upscope $end
$scope module m_immediate_generator $end
$var wire 32 x" instruction [31:0] $end
$var wire 7 y" opcode [6:0] $end
$var wire 3 z" funct3 [2:0] $end
$var reg 32 {" sextimm [31:0] $end
$upscope $end
$scope module m_instruction_memory $end
$var wire 32 |" address [31:0] $end
$var reg 32 }" instruction [31:0] $end
$upscope $end
$scope module m_memwb_reg $end
$var wire 1 ! clk $end
$var wire 32 ~" mem_alu_result [31:0] $end
$var wire 2 !# mem_jump [1:0] $end
$var wire 1 @ mem_memtoreg $end
$var wire 32 "# mem_pc_plus_4 [31:0] $end
$var wire 5 ## mem_rd [4:0] $end
$var wire 32 $# mem_readdata [31:0] $end
$var wire 1 < mem_regwrite $end
$var reg 32 %# wb_alu_result [31:0] $end
$var reg 2 &# wb_jump [1:0] $end
$var reg 1 + wb_memtoreg $end
$var reg 32 '# wb_pc_plus_4 [31:0] $end
$var reg 5 (# wb_rd [4:0] $end
$var reg 32 )# wb_readdata [31:0] $end
$var reg 1 ) wb_regwrite $end
$upscope $end
$scope module m_mux_2x1 $end
$var wire 32 *# in2 [31:0] $end
$var wire 1 e select $end
$var wire 32 +# in1 [31:0] $end
$var reg 32 ,# out [31:0] $end
$upscope $end
$scope module m_mux_2x1_2 $end
$var wire 32 -# in1 [31:0] $end
$var wire 32 .# in2 [31:0] $end
$var wire 1 + select $end
$var reg 32 /# out [31:0] $end
$upscope $end
$scope module m_mux_2x1_3 $end
$var wire 32 0# in1 [31:0] $end
$var wire 32 1# in2 [31:0] $end
$var wire 1 2# select $end
$var reg 32 3# out [31:0] $end
$upscope $end
$scope module m_mux_3x1 $end
$var wire 32 4# in1 [31:0] $end
$var wire 32 5# in2 [31:0] $end
$var wire 32 6# in3 [31:0] $end
$var wire 2 7# select [1:0] $end
$var reg 32 8# out [31:0] $end
$upscope $end
$scope module m_mux_3x1_2 $end
$var wire 32 9# in1 [31:0] $end
$var wire 32 :# in2 [31:0] $end
$var wire 32 ;# in3 [31:0] $end
$var wire 2 <# select [1:0] $end
$var reg 32 =# out [31:0] $end
$upscope $end
$scope module m_pc_plus_4_adder $end
$var wire 32 ># in_a [31:0] $end
$var wire 32 ?# in_b [31:0] $end
$var reg 32 @# result [31:0] $end
$upscope $end
$scope module m_register_file $end
$var wire 1 ! clk $end
$var wire 32 A# readdata1 [31:0] $end
$var wire 32 B# readdata2 [31:0] $end
$var wire 5 C# readreg1 [4:0] $end
$var wire 5 D# readreg2 [4:0] $end
$var wire 1 ) wen $end
$var wire 32 E# writedata [31:0] $end
$var wire 5 F# writereg [4:0] $end
$upscope $end
$upscope $end
$upscope $end
$enddefinitions $end
#0
$dumpvars
bx F#
bx E#
bx D#
bx C#
bx B#
bx A#
bx @#
b100 ?#
bx >#
bx =#
bx <#
bx ;#
bx :#
bx 9#
bx 8#
bx 7#
bx 6#
bx 5#
bx 4#
bx 3#
x2#
bx 1#
bx 0#
bx /#
bx .#
bx -#
bx ,#
bx +#
bx *#
bx )#
bx (#
bx '#
bx &#
bx %#
b0 $#
bx ##
bx "#
bx !#
bx ~"
bx }"
bx |"
bx {"
bx z"
bx y"
bx x"
bx w"
bx v"
bx u"
bx t"
bx s"
bx r"
bx q"
bx p"
bx o"
bx n"
bx m"
bx l"
bx k"
bx j"
bx i"
bx h"
bx g"
bx f"
bx e"
bx d"
bx c"
bx b"
bx a"
bx `"
bx _"
bx ^"
bx ]"
bx \"
bx ["
bx Z"
bx Y"
bx X"
bx W"
bx V"
bz U"
xT"
bx S"
bx R"
bx Q"
bx P"
bx O"
bx N"
bx M"
bx L"
bx K"
bz J"
bx I"
bx H"
bx G"
bx F"
bx E"
bx D"
bx C"
bx B"
bx A"
bx @"
bx ?"
bx >"
bx ="
bx <"
bx ;"
bx :"
bx 9"
bx 8"
bx 7"
bx 6"
bx 5"
bx 4"
bx 3"
b0 2"
bx 1"
bx 0"
b0xxx /"
bx ."
x-"
bx ,"
bx +"
bx *"
bx )"
bx ("
bx '"
bx &"
bx %"
bx $"
bx #"
bx ""
bx !"
bx ~
bx }
bx |
bx {
bx z
bx y
bx x
bx w
bx v
bx u
bx t
bx s
bx r
xq
xp
bx o
bx n
bx m
xl
bx k
bx j
bx i
bx h
bx g
bx f
xe
xd
xc
bx b
bx a
bx `
x_
x^
x]
bx \
bx [
bx Z
bx Y
xX
bx W
xV
xU
bx T
xS
bx R
bx Q
bx P
bx O
bx N
bx M
bx L
bx K
bx J
bx I
bx H
bx G
bx F
bx E
bx D
bx C
bx B
xA
x@
x?
x>
bx =
x<
x;
x:
x9
bx 8
bx 7
b0 6
bx 5
bx 4
bx 3
bx 2
x1
bx 0
x/
bx .
bx -
bx ,
x+
bx *
x)
bx (
bx '
bx &
bx %
bz $
bx #
0"
0!
$end
#500
b0 '
b0 3#
b0 5#
b0 :#
b0 E#
b0 &
b0 /#
b0 0#
0/
b100 u
b100 S"
0S
b0 K
b0 t"
b0 }"
b100 s
b100 O"
b100 s"
b100 @#
bz o
bz b"
b0 *
b0 )#
b0 .#
b0 v
b0 N"
b0 r"
b0 |"
b0 >#
1!
#1000
0!
#1500
b0 I
b0 )"
b0 Y"
0p
0>
0:
b0 r
b0 *"
b0 V"
09
0q
01
b0 +"
b0 0
b0 ]"
b0 {"
b0 y"
b0 z"
b0 %
b0 Z"
b0 4
b0 ^"
b0 B#
b0 2
b0 L"
b0 \"
b0 D#
b0 5
b0 _"
b0 A#
b0 3
b0 K"
b0 ["
b0 C#
b0 P
b0 W"
b0 O
b0 X"
b0 7
b0 ("
0c
0V
b0 L
b0 p"
b0 v"
b0 x"
b100 M
b100 `"
b100 q"
b100 w"
b0 N
b0 a"
b0 o"
b0 u"
1!
#2000
0!
#2500
b0 f
b0 }
b0 3"
b0 i
b0 z
b0 ,#
b0 h
b0 +#
b0 =#
b0 j
b0 {
b0 8#
0l
b0 Q
b0 H"
b0 <#
b0 R
b0 G"
b0 7#
b0 J
b0 y
b0 4"
b0 M"
b0 k
b0 |
b0 $"
0U
b0 t
b0 '"
b0 5"
b0 I"
b0 T
b0 7"
b0 P"
b0 i"
b0 Y
b0 D"
b0 m"
b0 Z
b0 E"
b0 l"
b0 [
b0 6"
b0 k"
b0 9#
b0 \
b0 w
b0 j"
b0 4#
b0 ""
b0 b
b0 !"
b0 :"
b0 e"
b0 a
b0 ~
b0 f"
b0 W
b0 x
b0 %"
b0 n"
b0 *#
0X
0^
0]
0_
0e
b0 g
b0 #"
b0 d"
0d
b0 `
b0 9"
b0 Q"
b0 g"
b100 m
b100 8"
b100 R"
b100 h"
b0 n
b0 &"
b0 c"
1!
#3000
0!
#3500
b0 0"
0-"
b0 /"
b0 H
b0 ,"
b0 C
b0 ="
b0 8
b0 A"
b0 C"
b0 ##
b0 =
b0 ."
b0 B"
b0 E
b0 1"
b0 ;"
b0 ~"
b0 6#
b0 ;#
b0 D
b0 <"
0<
0@
0?
0A
b0 B
b0 >"
b0 !#
0;
b0 G
b0 @"
b100 F
b100 ?"
b100 "#
1!
#4000
0!
#4500
02#
b0 (
b0 F"
b0 (#
b0 F#
b0 -
b0 %#
b0 -#
0)
0+
b0 ,
b0 &#
b100 .
b100 '#
b100 1#
1!
#5000
0!
#5500
1!
#6000
0!
1"
#6500
b1000 u
b1000 S"
b110100000000000000001101111 K
b110100000000000000001101111 t"
b110100000000000000001101111 }"
b1000 s
b1000 O"
b1000 s"
b1000 @#
b100 v
b100 N"
b100 r"
b100 |"
b100 >#
1!
#7000
0!
#7500
b10 I
b10 )"
b10 Y"
11
b1000000001 +"
b1100 u
b1100 S"
b11111101000000010000000100010011 K
b11111101000000010000000100010011 t"
b11111101000000010000000100010011 }"
b1100 s
b1100 O"
b1100 s"
b1100 @#
b1101000 0
b1101000 ]"
b1101000 {"
b1101111 y"
b1000 2
b1000 L"
b1000 \"
b1000 D#
b11 O
b11 X"
b1101111 7
b1101111 ("
b1000 v
b1000 N"
b1000 r"
b1000 |"
b1000 >#
b110100000000000000001101111 L
b110100000000000000001101111 p"
b110100000000000000001101111 v"
b110100000000000000001101111 x"
b1000 M
b1000 `"
b1000 q"
b1000 w"
b100 N
b100 a"
b100 o"
b100 u"
1!
#8000
0!
#8500
b0 I
b0 )"
b0 Y"
b11 r
b11 *"
b11 V"
1q
b11011 +"
b11111111111111111111111111010000 0
b11111111111111111111111111010000 ]"
b11111111111111111111111111010000 {"
b10011 y"
b10 %
b10 Z"
b10000 2
b10000 L"
b10000 \"
b10000 D#
b1100100 5
b1100100 _"
b1100100 A#
b10 3
b10 K"
b10 ["
b10 C#
b1111110 O
b1111110 X"
b10011 7
b10011 ("
b1101000 J
b1101000 y
b1101000 4"
b1101000 M"
b1101100 t
b1101100 '"
b1101100 5"
b1101100 I"
b1101100 u
b1101100 S"
1S
b10100000010010011000100011 K
b10100000010010011000100011 t"
b10100000010010011000100011 }"
b10000 s
b10000 O"
b10000 s"
b10000 @#
b11111101000000010000000100010011 L
b11111101000000010000000100010011 p"
b11111101000000010000000100010011 v"
b11111101000000010000000100010011 x"
b1100 M
b1100 `"
b1100 q"
b1100 w"
b1000 N
b1000 a"
b1000 o"
b1000 u"
b1000 Y
b1000 D"
b1000 m"
b11 a
b11 ~
b11 f"
b1101000 W
b1101000 x
b1101000 %"
b1101000 n"
b1101000 *#
1X
b10 `
b10 9"
b10 Q"
b10 g"
b1000 m
b1000 8"
b1000 R"
b1000 h"
b100 n
b100 &"
b100 c"
b1100 v
b1100 N"
b1100 r"
b1100 |"
b1100 >#
1!
#9000
0!
#9500
1:
b0 r
b0 *"
b0 V"
19
01
b110100 f
b110100 }
b110100 3"
b100110 +"
b11111110000000010000000100010011 K
b11111110000000010000000100010011 t"
b11111110000000010000000100010011 }"
b1110000 s
b1110000 O"
b1110000 s"
b1110000 @#
b1100100 j
b1100100 {
b1100100 8#
b1000 ""
b110100 J
b110100 y
b110100 4"
b110100 M"
b11111111111111111111111111010000 i
b11111111111111111111111111010000 z
b11111111111111111111111111010000 ,#
b1110000 u
b1110000 S"
0S
b11111111111111111111111111011000 t
b11111111111111111111111111011000 '"
b11111111111111111111111111011000 5"
b11111111111111111111111111011000 I"
b101100 0
b101100 ]"
b101100 {"
b100011 y"
b10 z"
b1100 %
b1100 Z"
b1000 2
b1000 L"
b1000 \"
b1000 D#
b10 P
b10 W"
b1 O
b1 X"
b100011 7
b100011 ("
b1101100 v
b1101100 N"
b1101100 r"
b1101100 |"
b1101100 >#
b1101000 C
b1101000 ="
1<
b10 B
b10 >"
b10 !#
b1101100 G
b1101100 @"
b1000 F
b1000 ?"
b1000 "#
0X
1c
b10 T
b10 7"
b10 P"
b10 i"
b10000 Y
b10000 D"
b10000 m"
b10 Z
b10 E"
b10 l"
b1100100 \
b1100100 w
b1100100 j"
b1100100 4#
b1111110 a
b1111110 ~
b1111110 f"
b11111111111111111111111111010000 W
b11111111111111111111111111010000 x
b11111111111111111111111111010000 %"
b11111111111111111111111111010000 n"
b11111111111111111111111111010000 *#
1e
b11 g
b11 #"
b11 d"
b0 `
b0 9"
b0 Q"
b0 g"
b1100 m
b1100 8"
b1100 R"
b1100 h"
b1000 n
b1000 &"
b1000 c"
b10100000010010011000100011 L
b10100000010010011000100011 p"
b10100000010010011000100011 v"
b10100000010010011000100011 x"
b10000 M
b10000 `"
b10000 q"
b10000 w"
b1100 N
b1100 a"
b1100 o"
b1100 u"
1!
#10000
0!
#10500
0:
b11 r
b11 *"
b11 V"
09
11
b11011 +"
b1000 '
b1000 3#
b1000 5#
b1000 :#
b1000 E#
b11111111111111111111111111100000 0
b11111111111111111111111111100000 ]"
b11111111111111111111111111100000 {"
b10011 y"
b0 z"
b10 %
b10 Z"
b0 2
b0 L"
b0 \"
b0 D#
b0 P
b0 W"
b1111111 O
b1111111 X"
b10011 7
b10011 ("
b1101 0"
12#
b1110100 u
b1110100 S"
b100010010111000100011 K
b100010010111000100011 t"
b100010010111000100011 }"
b1110100 s
b1110100 O"
b1110100 s"
b1110100 @#
b11111110000000010000000100010011 L
b11111110000000010000000100010011 p"
b11111110000000010000000100010011 v"
b11111110000000010000000100010011 x"
b1110000 M
b1110000 `"
b1110000 q"
b1110000 w"
b1101100 N
b1101100 a"
b1101100 o"
b1101100 u"
0c
b110100 C
b110100 ="
b10 8
b10 A"
b10 C"
b10 ##
b110100 E
b110100 1"
b110100 ;"
b110100 ~"
b110100 6#
b110100 ;#
0<
b0 B
b0 >"
b0 !#
b11111111111111111111111111011000 G
b11111111111111111111111111011000 @"
b1100 F
b1100 ?"
b1100 "#
1)
b10 ,
b10 &#
b1000 .
b1000 '#
b1000 1#
b1110000 v
b1110000 N"
b1110000 r"
b1110000 |"
b1110000 >#
b11111111111111111111111111010000 f
b11111111111111111111111111010000 }
b11111111111111111111111111010000 3"
b11111111111111111111111111010000 J
b11111111111111111111111111010000 y
b11111111111111111111111111010000 4"
b11111111111111111111111111010000 M"
b0 j
b0 {
b0 8#
b0 \
b0 w
b0 j"
b0 4#
1!
#11000
b0 4
b0 ^"
b0 B#
0!
#11500
1:
b0 r
b0 *"
b0 V"
19
01
b1000100 f
b1000100 }
b1000100 3"
b100110 +"
b1111000 u
b1111000 S"
b100000010010110000100011 K
b100000010010110000100011 t"
b100000010010110000100011 }"
b1111000 s
b1111000 O"
b1111000 s"
b1111000 @#
b110100 &
b110100 /#
b110100 0#
02#
b110100 '
b110100 3#
b110100 5#
b110100 :#
b110100 E#
b11110100 0"
b1100100 j
b1100100 {
b1100100 8#
b1000100 J
b1000100 y
b1000100 4"
b1000100 M"
b11111111111111111111111111100000 i
b11111111111111111111111111100000 z
b11111111111111111111111111100000 ,#
b1001100 t
b1001100 '"
b1001100 5"
b1001100 I"
b11100 0
b11100 ]"
b11100 {"
b100011 y"
b10 z"
b11100 %
b11100 Z"
b1 2
b1 L"
b1 \"
b1 D#
b10 P
b10 W"
b0 O
b0 X"
b100011 7
b100011 ("
b1110100 v
b1110100 N"
b1110100 r"
b1110100 |"
b1110100 >#
b10 (
b10 F"
b10 (#
b10 F#
b110100 -
b110100 %#
b110100 -#
0)
b0 ,
b0 &#
b1100 .
b1100 '#
b1100 1#
b11111111111111111111111111010000 C
b11111111111111111111111111010000 ="
b11111111111111111111111111010000 E
b11111111111111111111111111010000 1"
b11111111111111111111111111010000 ;"
b11111111111111111111111111010000 ~"
b11111111111111111111111111010000 6#
b11111111111111111111111111010000 ;#
b0 Y
b0 D"
b0 m"
b1100100 \
b1100100 w
b1100100 j"
b1100100 4#
b1111111 a
b1111111 ~
b1111111 f"
b11111111111111111111111111100000 W
b11111111111111111111111111100000 x
b11111111111111111111111111100000 %"
b11111111111111111111111111100000 n"
b11111111111111111111111111100000 *#
1X
b1110000 m
b1110000 8"
b1110000 R"
b1110000 h"
b1101100 n
b1101100 &"
b1101100 c"
b100010010111000100011 L
b100010010111000100011 p"
b100010010111000100011 v"
b100010010111000100011 x"
b1110100 M
b1110100 `"
b1110100 q"
b1110100 w"
b1110000 N
b1110000 a"
b1110000 o"
b1110000 u"
1!
#12000
0!
#12500
b1100000 f
b1100000 }
b1100000 3"
b11111111111111111111111111010000 '
b11111111111111111111111111010000 3#
b11111111111111111111111111010000 5#
b11111111111111111111111111010000 :#
b11111111111111111111111111010000 E#
b11000 0
b11000 ]"
b11000 {"
b11000 %
b11000 Z"
b1000 2
b1000 L"
b1000 \"
b1000 D#
b10000000 J
b10000000 y
b10000000 4"
b10000000 M"
b11100 i
b11100 z
b11100 ,#
b10001100 t
b10001100 '"
b10001100 5"
b10001100 I"
b10001 0"
b1000100 j
b1000100 {
b1000100 8#
b10 R
b10 G"
b10 7#
b11111111111111111111111111010000 &
b11111111111111111111111111010000 /#
b11111111111111111111111111010000 0#
b1111100 u
b1111100 S"
b10000000010000010000010011 K
b10000000010000010000010011 t"
b10000000010000010000010011 }"
b1111100 s
b1111100 O"
b1111100 s"
b1111100 @#
b100000010010110000100011 L
b100000010010110000100011 p"
b100000010010110000100011 v"
b100000010010110000100011 x"
b1111000 M
b1111000 `"
b1111000 q"
b1111000 w"
b1110100 N
b1110100 a"
b1110100 o"
b1110100 u"
b11100 T
b11100 7"
b11100 P"
b11100 i"
b1 Y
b1 D"
b1 m"
b10 ""
b10 b
b10 !"
b10 :"
b10 e"
b0 a
b0 ~
b0 f"
b11100 W
b11100 x
b11100 %"
b11100 n"
b11100 *#
0X
1^
1]
b0 g
b0 #"
b0 d"
b1110100 m
b1110100 8"
b1110100 R"
b1110100 h"
b1110000 n
b1110000 &"
b1110000 c"
b1000100 C
b1000100 ="
b1000100 E
b1000100 1"
b1000100 ;"
b1000100 ~"
b1000100 6#
b1000100 ;#
1<
b1001100 G
b1001100 @"
b1110000 F
b1110000 ?"
b1110000 "#
b11111111111111111111111111010000 -
b11111111111111111111111111010000 %#
b11111111111111111111111111010000 -#
b1111000 v
b1111000 N"
b1111000 r"
b1111000 |"
b1111000 >#
1!
#13000
0!
#13500
0:
b11 r
b11 *"
b11 V"
09
11
b10000000 u
b10000000 S"
b1000100 '
b1000100 3#
b1000100 5#
b1000100 :#
b1000100 E#
b1011100 f
b1011100 }
b1011100 3"
b11011 +"
b101100000000011110010011 K
b101100000000011110010011 t"
b101100000000011110010011 }"
b10000000 s
b10000000 O"
b10000000 s"
b10000000 @#
b1000100 &
b1000100 /#
b1000100 0#
b11000 0"
b1000100 j
b1000100 {
b1000100 8#
b10 /"
b10 H
b10 ,"
b1 R
b1 G"
b1 7#
b1111100 J
b1111100 y
b1111100 4"
b1111100 M"
b11000 i
b11000 z
b11000 ,#
b100000 0
b100000 ]"
b100000 {"
b10011 y"
b0 z"
b1000 %
b1000 Z"
b0 2
b0 L"
b0 \"
b0 D#
b0 P
b0 W"
b1 O
b1 X"
b10011 7
b10011 ("
b1111100 v
b1111100 N"
b1111100 r"
b1111100 |"
b1111100 >#
b1000100 -
b1000100 %#
b1000100 -#
1)
b1110000 .
b1110000 '#
b1110000 1#
b10000000 C
b10000000 ="
b11100 8
b11100 A"
b11100 C"
b11100 ##
b1100000 E
b1100000 1"
b1100000 ;"
b1100000 ~"
b1100000 6#
b1100000 ;#
b10 D
b10 <"
0<
1@
1?
b10001100 G
b10001100 @"
b1110100 F
b1110100 ?"
b1110100 "#
b11000 T
b11000 7"
b11000 P"
b11000 i"
b1000 Y
b1000 D"
b1000 m"
b11000 W
b11000 x
b11000 %"
b11000 n"
b11000 *#
b1111000 m
b1111000 8"
b1111000 R"
b1111000 h"
b1110100 n
b1110100 &"
b1110100 c"
b10000000010000010000010011 L
b10000000010000010000010011 p"
b10000000010000010000010011 v"
b10000000010000010000010011 x"
b1111100 M
b1111100 `"
b1111100 q"
b1111100 w"
b1111000 N
b1111000 a"
b1111000 o"
b1111000 u"
1!
#14000
b1000100 5
b1000100 _"
b1000100 A#
0!
