sim.vcd
$date
	Wed May  3 12:58:10 2023
$end
$version
	Icarus Verilog
$end
$timescale
	10ps
$end
$scope module riscv_tb $end
$var reg 1 ! clk $end
$var reg 1 " rstn $end
$var integer 32 # i [31:0] $end
$scope module my_cpu $end
$var wire 1 ! clk $end
$var wire 1 " rstn $end
$var wire 5 $ writereg [4:0] $end
$var wire 32 % write_data_ [31:0] $end
$var wire 32 & write_data [31:0] $end
$var wire 5 ' wb_writereg [4:0] $end
$var wire 1 ( wb_reg_write $end
$var wire 32 ) wb_read_data [31:0] $end
$var wire 1 * wb_mem_to_reg $end
$var wire 2 + wb_jump [1:0] $end
$var wire 32 , wb_alu_result [31:0] $end
$var wire 32 - wb_PC_PLUS_4 [31:0] $end
$var wire 32 . sextimm [31:0] $end
$var wire 1 / reg_write $end
$var wire 5 0 readreg2 [4:0] $end
$var wire 5 1 readreg1 [4:0] $end
$var wire 32 2 readdata2 [31:0] $end
$var wire 32 3 readdata1 [31:0] $end
$var wire 32 4 read_data [31:0] $end
$var wire 7 5 opcode [6:0] $end
$var wire 5 6 mem_writereg [4:0] $end
$var wire 1 7 mem_write $end
$var wire 1 8 mem_to_reg $end
$var wire 1 9 mem_taken $end
$var wire 1 : mem_reg_write $end
$var wire 32 ; mem_readdata2 [31:0] $end
$var wire 1 < mem_read $end
$var wire 1 = mem_mem_write $end
$var wire 1 > mem_mem_to_reg $end
$var wire 1 ? mem_mem_read $end
$var wire 2 @ mem_jump [1:0] $end
$var wire 3 A mem_funct3 [2:0] $end
$var wire 32 B mem_alu_result [31:0] $end
$var wire 32 C mem_PC_PLUS_4 [31:0] $end
$var wire 32 D mem_PC_BRANCH [31:0] $end
$var wire 2 E maskmode [1:0] $end
$var wire 2 F jump [1:0] $end
$var wire 32 G instruction [31:0] $end
$var wire 32 H id_instruction [31:0] $end
$var wire 32 I id_PC_PLUS_4 [31:0] $end
$var wire 32 J id_PC [31:0] $end
$var wire 7 K funct7 [6:0] $end
$var wire 3 L funct3 [2:0] $end
$var wire 2 M forwarding_2 [1:0] $end
$var wire 2 N forwarding_1 [1:0] $end
$var wire 5 O ex_writereg [4:0] $end
$var wire 1 P ex_taken $end
$var wire 32 Q ex_sextimm [31:0] $end
$var wire 1 R ex_reg_write $end
$var wire 5 S ex_readreg2 [4:0] $end
$var wire 5 T ex_readreg1 [4:0] $end
$var wire 32 U ex_readdata2 [31:0] $end
$var wire 32 V ex_readdata1 [31:0] $end
$var wire 1 W ex_mem_write $end
$var wire 1 X ex_mem_to_reg $end
$var wire 1 Y ex_mem_read $end
$var wire 2 Z ex_jump [1:0] $end
$var wire 7 [ ex_funct7 [6:0] $end
$var wire 3 \ ex_funct3 [2:0] $end
$var wire 1 ] ex_branch $end
$var wire 1 ^ ex_alu_src $end
$var wire 32 _ ex_alu_result [31:0] $end
$var wire 2 ` ex_alu_op [1:0] $end
$var wire 32 a ex_alu_in2_temp [31:0] $end
$var wire 32 b ex_alu_in2 [31:0] $end
$var wire 32 c ex_alu_in1 [31:0] $end
$var wire 4 d ex_alu_func [3:0] $end
$var wire 1 e ex_alu_check $end
$var wire 32 f ex_PC_PLUS_4 [31:0] $end
$var wire 32 g ex_PC [31:0] $end
$var wire 1 h branch $end
$var wire 1 i alu_src $end
$var wire 2 j alu_op [1:0] $end
$var wire 32 k PC_PLUS_4 [31:0] $end
$var wire 32 l PC_BRANCH [31:0] $end
$var wire 32 m NEXT_PC [31:0] $end
$var reg 32 n PC [31:0] $end
$scope module m_alu $end
$var wire 32 o in_b [31:0] $end
$var wire 32 p in_a [31:0] $end
$var wire 4 q alu_func [3:0] $end
$var reg 1 e check $end
$var reg 32 r result [31:0] $end
$upscope $end
$scope module m_alu_control $end
$var wire 7 s funct7 [6:0] $end
$var wire 3 t funct3 [2:0] $end
$var wire 4 u funct [3:0] $end
$var wire 2 v alu_op [1:0] $end
$var reg 4 w alu_func [3:0] $end
$upscope $end
$scope module m_branch_control $end
$var wire 1 e check $end
$var wire 1 ] branch $end
$var reg 1 P taken $end
$upscope $end
$scope module m_branch_target_adder $end
$var wire 32 x in_b [31:0] $end
$var wire 32 y in_a [31:0] $end
$var reg 32 z result [31:0] $end
$upscope $end
$scope module m_control $end
$var wire 7 { opcode [6:0] $end
$var wire 1 / reg_write $end
$var wire 1 7 mem_write $end
$var wire 1 8 mem_to_reg $end
$var wire 1 < mem_read $end
$var wire 2 | jump [1:0] $end
$var wire 1 h branch $end
$var wire 1 i alu_src $end
$var wire 2 } alu_op [1:0] $end
$var reg 10 ~ controls [9:0] $end
$upscope $end
$scope module m_data_memory $end
$var wire 1 ! clk $end
$var wire 2 !" maskmode [1:0] $end
$var wire 1 "" sext $end
$var wire 32 #" write_data [31:0] $end
$var wire 1 = mem_write $end
$var wire 1 ? mem_read $end
$var wire 4 $" funct3 [3:0] $end
$var wire 8 %" address_internal [7:0] $end
$var wire 32 &" address [31:0] $end
$var reg 32 '" read_data [31:0] $end
$upscope $end
$scope module m_exmem_reg $end
$var wire 1 ! clk $end
$var wire 32 (" ex_alu_result [31:0] $end
$var wire 32 )" ex_pc_target [31:0] $end
$var wire 1 P ex_taken $end
$var wire 32 *" ex_writedata [31:0] $end
$var wire 1 R ex_regwrite $end
$var wire 5 +" ex_rd [4:0] $end
$var wire 32 ," ex_pc_plus_4 [31:0] $end
$var wire 1 W ex_memwrite $end
$var wire 1 X ex_memtoreg $end
$var wire 1 Y ex_memread $end
$var wire 2 -" ex_jump [1:0] $end
$var wire 3 ." ex_funct3 [2:0] $end
$var reg 32 /" mem_alu_result [31:0] $end
$var reg 3 0" mem_funct3 [2:0] $end
$var reg 2 1" mem_jump [1:0] $end
$var reg 1 ? mem_memread $end
$var reg 1 > mem_memtoreg $end
$var reg 1 = mem_memwrite $end
$var reg 32 2" mem_pc_plus_4 [31:0] $end
$var reg 32 3" mem_pc_target [31:0] $end
$var reg 5 4" mem_rd [4:0] $end
$var reg 1 : mem_regwrite $end
$var reg 1 9 mem_taken $end
$var reg 32 5" mem_writedata [31:0] $end
$upscope $end
$scope module m_forwarding $end
$var wire 1 : mem_reg_write $end
$var wire 5 6" rd_mem [4:0] $end
$var wire 1 ( wb_reg_write $end
$var wire 5 7" rs2_ex [4:0] $end
$var wire 5 8" rs1_ex [4:0] $end
$var wire 5 9" rd_wb [4:0] $end
$var reg 2 :" forwarding_1 [1:0] $end
$var reg 2 ;" forwarding_2 [1:0] $end
$upscope $end
$scope module m_hazard $end
$upscope $end
$scope module m_idex_reg $end
$var wire 1 ! clk $end
$var wire 2 <" id_aluop [1:0] $end
$var wire 1 i id_alusrc $end
$var wire 1 h id_branch $end
$var wire 3 =" id_funct3 [2:0] $end
$var wire 7 >" id_funct7 [6:0] $end
$var wire 2 ?" id_jump [1:0] $end
$var wire 1 < id_memread $end
$var wire 1 8 id_memtoreg $end
$var wire 1 7 id_memwrite $end
$var wire 5 @" id_rd [4:0] $end
$var wire 1 / id_regwrite $end
$var wire 5 A" id_rs1 [4:0] $end
$var wire 5 B" id_rs2 [4:0] $end
$var wire 32 C" id_sextimm [31:0] $end
$var wire 32 D" id_readdata2 [31:0] $end
$var wire 32 E" id_readdata1 [31:0] $end
$var wire 32 F" id_pc_plus_4 [31:0] $end
$var wire 32 G" id_PC [31:0] $end
$var reg 32 H" ex_PC [31:0] $end
$var reg 2 I" ex_aluop [1:0] $end
$var reg 1 ^ ex_alusrc $end
$var reg 1 ] ex_branch $end
$var reg 3 J" ex_funct3 [2:0] $end
$var reg 7 K" ex_funct7 [6:0] $end
$var reg 2 L" ex_jump [1:0] $end
$var reg 1 Y ex_memread $end
$var reg 1 X ex_memtoreg $end
$var reg 1 W ex_memwrite $end
$var reg 32 M" ex_pc_plus_4 [31:0] $end
$var reg 5 N" ex_rd [4:0] $end
$var reg 32 O" ex_readdata1 [31:0] $end
$var reg 32 P" ex_readdata2 [31:0] $end
$var reg 1 R ex_regwrite $end
$var reg 5 Q" ex_rs1 [4:0] $end
$var reg 5 R" ex_rs2 [4:0] $end
$var reg 32 S" ex_sextimm [31:0] $end
$upscope $end
$scope module m_ifid_reg $end
$var wire 1 ! clk $end
$var wire 32 T" if_PC [31:0] $end
$var wire 32 U" if_pc_plus_4 [31:0] $end
$var wire 32 V" if_instruction [31:0] $end
$var reg 32 W" id_PC [31:0] $end
$var reg 32 X" id_instruction [31:0] $end
$var reg 32 Y" id_pc_plus_4 [31:0] $end
$upscope $end
$scope module m_immediate_generator $end
$var wire 32 Z" instruction [31:0] $end
$var wire 7 [" opcode [6:0] $end
$var wire 3 \" funct3 [2:0] $end
$var reg 32 ]" sextimm [31:0] $end
$upscope $end
$scope module m_instruction_memory $end
$var wire 32 ^" address [31:0] $end
$var reg 32 _" instruction [31:0] $end
$upscope $end
$scope module m_memwb_reg $end
$var wire 1 ! clk $end
$var wire 32 `" mem_alu_result [31:0] $end
$var wire 2 a" mem_jump [1:0] $end
$var wire 1 > mem_memtoreg $end
$var wire 32 b" mem_pc_plus_4 [31:0] $end
$var wire 5 c" mem_rd [4:0] $end
$var wire 32 d" mem_readdata [31:0] $end
$var wire 1 : mem_regwrite $end
$var reg 32 e" wb_alu_result [31:0] $end
$var reg 2 f" wb_jump [1:0] $end
$var reg 1 * wb_memtoreg $end
$var reg 32 g" wb_pc_plus_4 [31:0] $end
$var reg 5 h" wb_rd [4:0] $end
$var reg 32 i" wb_readdata [31:0] $end
$var reg 1 ( wb_regwrite $end
$upscope $end
$scope module m_mux_2x1 $end
$var wire 32 j" in1 [31:0] $end
$var wire 32 k" in2 [31:0] $end
$var wire 1 ^ select $end
$var reg 32 l" out [31:0] $end
$upscope $end
$scope module m_mux_2x1_2 $end
$var wire 32 m" in1 [31:0] $end
$var wire 32 n" in2 [31:0] $end
$var wire 1 * select $end
$var reg 32 o" out [31:0] $end
$upscope $end
$scope module m_mux_2x1_3 $end
$var wire 32 p" in1 [31:0] $end
$var wire 32 q" in2 [31:0] $end
$var wire 1 r" select $end
$var reg 32 s" out [31:0] $end
$upscope $end
$scope module m_mux_2x1_branch $end
$var wire 32 t" in1 [31:0] $end
$var wire 32 u" in2 [31:0] $end
$var wire 1 9 select $end
$var reg 32 v" out [31:0] $end
$upscope $end
$scope module m_mux_3x1 $end
$var wire 32 w" in1 [31:0] $end
$var wire 32 x" in2 [31:0] $end
$var wire 32 y" in3 [31:0] $end
$var wire 2 z" select [1:0] $end
$var reg 32 {" out [31:0] $end
$upscope $end
$scope module m_mux_3x1_2 $end
$var wire 32 |" in1 [31:0] $end
$var wire 32 }" in2 [31:0] $end
$var wire 32 ~" in3 [31:0] $end
$var wire 2 !# select [1:0] $end
$var reg 32 "# out [31:0] $end
$upscope $end
$scope module m_pc_plus_4_adder $end
$var wire 32 ## in_a [31:0] $end
$var wire 32 $# in_b [31:0] $end
$var reg 32 %# result [31:0] $end
$upscope $end
$scope module m_register_file $end
$var wire 1 ! clk $end
$var wire 32 &# readdata1 [31:0] $end
$var wire 32 '# readdata2 [31:0] $end
$var wire 5 (# readreg1 [4:0] $end
$var wire 5 )# readreg2 [4:0] $end
$var wire 1 ( wen $end
$var wire 32 *# writedata [31:0] $end
$var wire 5 +# writereg [4:0] $end
$upscope $end
$upscope $end
$upscope $end
$enddefinitions $end
#0
$dumpvars
bx +#
bx *#
bx )#
bx (#
bx '#
bx &#
bx %#
b100 $#
bx ##
bx "#
bx !#
bx ~"
bx }"
bx |"
bx {"
bx z"
bx y"
bx x"
bx w"
bx v"
bx u"
bx t"
bx s"
xr"
bx q"
bx p"
bx o"
bx n"
bx m"
bx l"
bx k"
bx j"
bx i"
bx h"
bx g"
bx f"
bx e"
b0 d"
bx c"
bx b"
bx a"
bx `"
bx _"
bx ^"
bx ]"
bx \"
bx ["
bx Z"
bx Y"
bx X"
bx W"
bx V"
bx U"
bx T"
bx S"
bx R"
bx Q"
bx P"
bx O"
bx N"
bx M"
bx L"
bx K"
bx J"
bx I"
bx H"
bx G"
bx F"
bx E"
bx D"
bx C"
bx B"
bx A"
bx @"
bx ?"
bx >"
bx ="
bx <"
bx ;"
bx :"
bx 9"
bx 8"
bx 7"
bx 6"
bx 5"
bx 4"
bx 3"
bx 2"
bx 1"
bx 0"
bx /"
bx ."
bx -"
bx ,"
bx +"
bx *"
bx )"
bx ("
b0 '"
bx &"
bx %"
b0xxx $"
bx #"
x""
bx !"
bx ~
bx }
bx |
bx {
bx z
bx y
bx x
bx w
bx v
bx u
bx t
bx s
bx r
bx q
bx p
bx o
bx n
bx m
bx l
bx k
bx j
xi
xh
bx g
bx f
xe
bx d
bx c
bx b
bx a
bx `
bx _
x^
x]
bx \
bx [
bx Z
xY
xX
xW
bx V
bx U
bx T
bx S
xR
bx Q
xP
bx O
bx N
bx M
bx L
bx K
bx J
bx I
bx H
bx G
bx F
bx E
bx D
bx C
bx B
bx A
bx @
x?
x>
x=
x<
bx ;
x:
x9
x8
x7
bx 6
bx 5
b0 4
bx 3
bx 2
bx 1
bx 0
x/
bx .
bx -
bx ,
bx +
x*
bx )
x(
bx '
bx &
bx %
bx $
bx #
0"
0!
$end
#500
b0 &
b0 s"
b0 x"
b0 }"
b0 *#
b0 %
b0 o"
b0 p"
b0 G
b0 V"
b0 _"
b100 k
b100 U"
b100 %#
b0 )
b0 i"
b0 n"
b0 n
b0 T"
b0 ^"
b0 ##
1!
#1000
0!
#1500
b0 F
b0 |
b0 ?"
0h
0<
08
b0 j
b0 }
b0 <"
07
0i
0/
b0 ~
b0 .
b0 C"
b0 ]"
b0 ["
b0 \"
b0 $
b0 @"
b0 2
b0 D"
b0 '#
b0 0
b0 B"
b0 )#
b0 3
b0 E"
b0 &#
b0 1
b0 A"
b0 (#
b0 L
b0 ="
b0 K
b0 >"
b0 5
b0 {
b0 H
b0 X"
b0 Z"
b100 I
b100 F"
b100 Y"
b0 J
b0 G"
b0 W"
1!
#2000
0!
#2500
b0 _
b0 r
b0 ("
b0 c
b0 p
b0 {"
b0 b
b0 o
b0 "#
0e
b0 M
b0 ;"
b0 !#
b0 N
b0 :"
b0 z"
b0 a
b0 l"
b0 |"
b0 d
b0 q
b0 w
0P
b0 l
b0 z
b0 )"
b0 O
b0 +"
b0 N"
b0 S
b0 7"
b0 R"
b0 T
b0 8"
b0 Q"
b0 U
b0 *"
b0 P"
b0 j"
b0 V
b0 O"
b0 w"
b0 u
b0 \
b0 t
b0 ."
b0 J"
b0 [
b0 s
b0 K"
b0 Q
b0 x
b0 S"
b0 k"
0R
0X
0W
0Y
0^
b0 `
b0 v
b0 I"
0]
b0 Z
b0 -"
b0 L"
b100 f
b100 ,"
b100 M"
b0 g
b0 y
b0 H"
1!
#3000
0!
#3500
b0 %"
0""
b0 $"
b0 E
b0 !"
b100 m
b100 v"
b0 6
b0 4"
b0 6"
b0 c"
b0 ;
b0 #"
b0 5"
b0 B
b0 &"
b0 /"
b0 `"
b0 y"
b0 ~"
b0 A
b0 0"
0:
0>
0=
0?
b0 @
b0 1"
b0 a"
09
b0 D
b0 3"
b0 u"
b100 C
b100 2"
b100 b"
b100 t"
1!
#4000
0!
#4500
0r"
b0 '
b0 9"
b0 h"
b0 +#
b0 ,
b0 e"
b0 m"
0(
0*
b0 +
b0 f"
b100 -
b100 g"
b100 q"
1!
#5000
0!
#5500
1!
#6000
0!
1"
#6500
b11001100011 G
b11001100011 V"
b11001100011 _"
b1000 k
b1000 U"
b1000 %#
b100 n
b100 T"
b100 ^"
b100 ##
1!
#7000
0!
#7500
1h
b1 j
b1 }
b1 <"
b10001000 ~
b1100 .
b1100 C"
b1100 ]"
b1100011 ["
b1100 $
b1100 @"
b1100011 5
b1100011 {
b11001100011 H
b11001100011 X"
b11001100011 Z"
b1000 I
b1000 F"
b1000 Y"
b100 J
b100 G"
b100 W"
1!
#8000
0!
#8500
1P
1e
b1 d
b1 q
b1 w
b10000 l
b10000 z
b10000 )"
b1100 O
b1100 +"
b1100 N"
b1100 Q
b1100 x
b1100 S"
b1100 k"
b1 `
b1 v
b1 I"
1]
b1000 f
b1000 ,"
b1000 M"
b100 g
b100 y
b100 H"
1!
#9000
0!
#9500
b10000 m
b10000 v"
b1100 6
b1100 4"
b1100 6"
b1100 c"
19
b10000 D
b10000 3"
b10000 u"
b1000 C
b1000 2"
b1000 b"
b1000 t"
1!
#10000
0!
#10500
b1000000001000001000100010110011 G
b1000000001000001000100010110011 V"
b1000000001000001000100010110011 _"
b10100 k
b10100 U"
b10100 %#
b1100 '
b1100 9"
b1100 h"
b1100 +#
b1000 -
b1000 g"
b1000 q"
b10000 n
b10000 T"
b10000 ^"
b10000 ##
1!
#11000
0!
#11500
0h
b10 j
b10 }
b10 <"
1/
b10001 ~
b0 .
b0 C"
b0 ]"
b110011 ["
b10001 $
b10001 @"
b10 2
b10 D"
b10 '#
b10 0
b10 B"
b10 )#
b1 3
b1 E"
b1 &#
b1 1
b1 A"
b1 (#
b100000 K
b100000 >"
b110011 5
b110011 {
b1000000001000001000100010110011 H
b1000000001000001000100010110011 X"
b1000000001000001000100010110011 Z"
b10100 I
b10100 F"
b10100 Y"
b10000 J
b10000 G"
b10000 W"
1!
#12000
0!
#12500
b10 b
b10 o
b10 "#
0e
b11111111111111111111111111111111 _
b11111111111111111111111111111111 r
b11111111111111111111111111111111 ("
b1 c
b1 p
b1 {"
b1000 u
b10 a
b10 l"
b10 |"
b1 d
b1 q
b1 w
0P
b10001 O
b10001 +"
b10001 N"
b10 S
b10 7"
b10 R"
b1 T
b1 8"
b1 Q"
b10 U
b10 *"
b10 P"
b10 j"
b1 V
b1 O"
b1 w"
b100000 [
b100000 s
b100000 K"
b0 Q
b0 x
b0 S"
b0 k"
1R
b10 `
b10 v
b10 I"
0]
b10100 f
b10100 ,"
b10100 M"
b10000 g
b10000 y
b10000 H"
1!
#13000
0!
#13500
b11111111 %"
b10100 m
b10100 v"
b10001 6
b10001 4"
b10001 6"
b10001 c"
b10 ;
b10 #"
b10 5"
b11111111111111111111111111111111 B
b11111111111111111111111111111111 &"
b11111111111111111111111111111111 /"
b11111111111111111111111111111111 `"
b11111111111111111111111111111111 y"
b11111111111111111111111111111111 ~"
1:
09
b10100 C
b10100 2"
b10100 b"
b10100 t"
1!
#14000
0!
#14500
b11111111111111111111111111111111 &
b11111111111111111111111111111111 s"
b11111111111111111111111111111111 x"
b11111111111111111111111111111111 }"
b11111111111111111111111111111111 *#
b11111111111111111111111111111111 %
b11111111111111111111111111111111 o"
b11111111111111111111111111111111 p"
b100000000000100111100111 G
b100000000000100111100111 V"
b100000000000100111100111 _"
b11000 k
b11000 U"
b11000 %#
b10001 '
b10001 9"
b10001 h"
b10001 +#
b11111111111111111111111111111111 ,
b11111111111111111111111111111111 e"
b11111111111111111111111111111111 m"
1(
b10100 -
b10100 g"
b10100 q"
b10100 n
b10100 T"
b10100 ^"
b10100 ##
1!
#15000
0!
#15500
b11 F
b11 |
b11 ?"
b0 j
b0 }
b0 <"
b1100000001 ~
b1000 .
b1000 C"
b1000 ]"
b1100111 ["
b10011 $
b10011 @"
b1000 2
b1000 D"
b1000 '#
b1000 0
b1000 B"
b1000 )#
b0 3
b0 E"
b0 &#
b0 1
b0 A"
b0 (#
b0 K
b0 >"
b1100111 5
b1100111 {
b100000000000100111100111 H
b100000000000100111100111 X"
b100000000000100111100111 Z"
b11000 I
b11000 F"
b11000 Y"
b10100 J
b10100 G"
b10100 W"
1!
#16000
0!
#16500
b1000 b
b1000 o
b1000 "#
b1000 _
b1000 r
b1000 ("
b0 c
b0 p
b0 {"
b0 u
b1000 a
b1000 l"
b1000 |"
b0 d
b0 q
b0 w
b11100 l
b11100 z
b11100 )"
b10011 O
b10011 +"
b10011 N"
b1000 S
b1000 7"
b1000 R"
b0 T
b0 8"
b0 Q"
b1000 U
b1000 *"
b1000 P"
b1000 j"
b0 V
b0 O"
b0 w"
b0 [
b0 s
b0 K"
b1000 Q
b1000 x
b1000 S"
b1000 k"
b0 `
b0 v
b0 I"
b11 Z
b11 -"
b11 L"
b11000 f
b11000 ,"
b11000 M"
b10100 g
b10100 y
b10100 H"
1!
#17000
0!
#17500
b10 %"
b11000 m
b11000 v"
b10011 6
b10011 4"
b10011 6"
b10011 c"
b1000 ;
b1000 #"
b1000 5"
b1000 B
b1000 &"
b1000 /"
b1000 `"
b1000 y"
b1000 ~"
b11 @
b11 1"
b11 a"
b11100 D
b11100 3"
b11100 u"
b11000 C
b11000 2"
b11000 b"
b11000 t"
1!
#18000
0!
#18500
b11000 &
b11000 s"
b11000 x"
b11000 }"
b11000 *#
b1000 %
b1000 o"
b1000 p"
1r"
b10000011000100100110011 G
b10000011000100100110011 V"
b10000011000100100110011 _"
b11100 k
b11100 U"
b11100 %#
b10011 '
b10011 9"
b10011 h"
b10011 +#
b1000 ,
b1000 e"
b1000 m"
b11 +
b11 f"
b11000 -
b11000 g"
b11000 q"
b11000 n
b11000 T"
b11000 ^"
b11000 ##
1!
#19000
0!
#19500
b0 F
b0 |
b0 ?"
b10 j
b10 }
b10 <"
b10001 ~
b0 .
b0 C"
b0 ]"
b110011 ["
b10010 $
b10010 @"
b100 2
b100 D"
b100 '#
b100 0
b100 B"
b100 )#
b11 3
b11 E"
b11 &#
b11 1
b11 A"
b11 (#
b110011 5
b110011 {
b10000011000100100110011 H
b10000011000100100110011 X"
b10000011000100100110011 Z"
b11100 I
b11100 F"
b11100 Y"
b11000 J
b11000 G"
b11000 W"
1!
#20000
0!
#20500
b111 _
b111 r
b111 ("
b100 b
b100 o
b100 "#
b11 c
b11 p
b11 {"
b100 a
b100 l"
b100 |"
b11000 l
b11000 z
b11000 )"
b10010 O
b10010 +"
b10010 N"
b100 S
b100 7"
b100 R"
b11 T
b11 8"
b11 Q"
b100 U
b100 *"
b100 P"
b100 j"
b11 V
b11 O"
b11 w"
b0 Q
b0 x
b0 S"
b0 k"
b10 `
b10 v
b10 I"
b0 Z
b0 -"
b0 L"
b11100 f
b11100 ,"
b11100 M"
b11000 g
b11000 y
b11000 H"
1!
#21000
0!
#21500
b1 %"
b11100 m
b11100 v"
b10010 6
b10010 4"
b10010 6"
b10010 c"
b100 ;
b100 #"
b100 5"
b111 B
b111 &"
b111 /"
b111 `"
b111 y"
b111 ~"
b0 @
b0 1"
b0 a"
b11000 D
b11000 3"
b11000 u"
b11100 C
b11100 2"
b11100 b"
b11100 t"
1!
#22000
0!
#22500
b111 %
b111 o"
b111 p"
0r"
b111 &
b111 s"
b111 x"
b111 }"
b111 *#
b10000000000101001101111 G
b10000000000101001101111 V"
b10000000000101001101111 _"
b100000 k
b100000 U"
b100000 %#
b10010 '
b10010 9"
b10010 h"
b10010 +#
b111 ,
b111 e"
b111 m"
b0 +
b0 f"
b11100 -
b11100 g"
b11100 q"
b11100 n
b11100 T"
b11100 ^"
b11100 ##
1!
#23000
0!
#23500
b10 F
b10 |
b10 ?"
b0 j
b0 }
b0 <"
b1000000001 ~
b100 .
b100 C"
b100 ]"
b1101111 ["
b10100 $
b10100 @"
b0 3
b0 E"
b0 &#
b0 1
b0 A"
b0 (#
b1101111 5
b1101111 {
b10000000000101001101111 H
b10000000000101001101111 X"
b10000000000101001101111 Z"
b100000 I
b100000 F"
b100000 Y"
b11100 J
b11100 G"
b11100 W"
1!
#24000
0!
#24500
b100 _
b100 r
b100 ("
b0 c
b0 p
b0 {"
b100000 l
b100000 z
b100000 )"
b10100 O
b10100 +"
b10100 N"
b0 T
b0 8"
b0 Q"
b0 V
b0 O"
b0 w"
b100 Q
b100 x
b100 S"
b100 k"
b0 `
b0 v
b0 I"
b10 Z
b10 -"
b10 L"
b100000 f
b100000 ,"
b100000 M"
b11100 g
b11100 y
b11100 H"
1!
#25000
0!
#25500
b100000 m
b100000 v"
b10100 6
b10100 4"
b10100 6"
b10100 c"
b100 B
b100 &"
b100 /"
b100 `"
b100 y"
b100 ~"
b10 @
b10 1"
b10 a"
b100000 D
b100000 3"
b100000 u"
b100000 C
b100000 2"
b100000 b"
b100000 t"
1!
#26000
0!
#26500
b100000 &
b100000 s"
b100000 x"
b100000 }"
b100000 *#
b100 %
b100 o"
b100 p"
1r"
b1000100000101010110011 G
b1000100000101010110011 V"
b1000100000101010110011 _"
b100100 k
b100100 U"
b100100 %#
b10100 '
b10100 9"
b10100 h"
b10100 +#
b100 ,
b100 e"
b100 m"
b10 +
b10 f"
b100000 -
b100000 g"
b100000 q"
b100000 n
b100000 T"
b100000 ^"
b100000 ##
1!
#27000
0!
#27500
b0 F
b0 |
b0 ?"
b10 j
b10 }
b10 <"
b10001 ~
b0 .
b0 C"
b0 ]"
b110011 ["
b10101 $
b10101 @"
b10 2
b10 D"
b10 '#
b10 0
b10 B"
b10 )#
b100 3
b100 E"
b100 &#
b100 1
b100 A"
b100 (#
b110011 5
b110011 {
b1000100000101010110011 H
b1000100000101010110011 X"
b1000100000101010110011 Z"
b100100 I
b100100 F"
b100100 Y"
b100000 J
b100000 G"
b100000 W"
1!
#28000
0!
#28500
b110 _
b110 r
b110 ("
b10 b
b10 o
b10 "#
b100 c
b100 p
b100 {"
b10 a
b10 l"
b10 |"
b10101 O
b10101 +"
b10101 N"
b10 S
b10 7"
b10 R"
b100 T
b100 8"
b100 Q"
b10 U
b10 *"
b10 P"
b10 j"
b100 V
b100 O"
b100 w"
b0 Q
b0 x
b0 S"
b0 k"
b10 `
b10 v
b10 I"
b0 Z
b0 -"
b0 L"
b100100 f
b100100 ,"
b100100 M"
b100000 g
b100000 y
b100000 H"
1!
#29000
0!
#29500
b100100 m
b100100 v"
b10101 6
b10101 4"
b10101 6"
b10101 c"
b10 ;
b10 #"
b10 5"
b110 B
b110 &"
b110 /"
b110 `"
b110 y"
b110 ~"
b0 @
b0 1"
b0 a"
b100100 C
b100100 2"
b100100 b"
b100100 t"
1!
#30000
0!
#30500
b110 %
b110 o"
b110 p"
0r"
b110 &
b110 s"
b110 x"
b110 }"
b110 *#
b10011 G
b10011 V"
b10011 _"
b101000 k
b101000 U"
b101000 %#
b10101 '
b10101 9"
b10101 h"
b10101 +#
b110 ,
b110 e"
b110 m"
b0 +
b0 f"
b100100 -
b100100 g"
b100100 q"
b100100 n
b100100 T"
b100100 ^"
b100100 ##
1!
#31000
0!
#31500
b11 j
b11 }
b11 <"
1i
b11011 ~
b10011 ["
b0 $
b0 @"
b0 2
b0 D"
b0 '#
b0 0
b0 B"
b0 )#
b0 3
b0 E"
b0 &#
b0 1
b0 A"
b0 (#
b10011 5
b10011 {
b10011 H
b10011 X"
b10011 Z"
b101000 I
b101000 F"
b101000 Y"
b100100 J
b100100 G"
b100100 W"
1!
#32000
0!
#32500
b0 _
b0 r
b0 ("
b0 b
b0 o
b0 "#
b0 c
b0 p
b0 {"
b0 a
b0 l"
b0 |"
b100100 l
b100100 z
b100100 )"
b0 O
b0 +"
b0 N"
b0 S
b0 7"
b0 R"
b0 T
b0 8"
b0 Q"
b0 U
b0 *"
b0 P"
b0 j"
b0 V
b0 O"
b0 w"
1^
b11 `
b11 v
b11 I"
b101000 f
b101000 ,"
b101000 M"
b100100 g
b100100 y
b100100 H"
1!
#33000
0!
#33500
b0 %"
b101000 m
b101000 v"
b0 6
b0 4"
b0 6"
b0 c"
b0 ;
b0 #"
b0 5"
b0 B
b0 &"
b0 /"
b0 `"
b0 y"
b0 ~"
b100100 D
b100100 3"
b100100 u"
b101000 C
b101000 2"
b101000 b"
b101000 t"
1!
#34000
0!
#34500
b0 &
b0 s"
b0 x"
b0 }"
b0 *#
b0 %
b0 o"
b0 p"
b101100 k
b101100 U"
b101100 %#
b0 '
b0 9"
b0 h"
b0 +#
b0 ,
b0 e"
b0 m"
b101000 -
b101000 g"
b101000 q"
b101000 n
b101000 T"
b101000 ^"
b101000 ##
1!
#35000
0!
#35500
b101100 I
b101100 F"
b101100 Y"
b101000 J
b101000 G"
b101000 W"
1!
#36000
0!
#36500
b101000 l
b101000 z
b101000 )"
b101100 f
b101100 ,"
b101100 M"
b101000 g
b101000 y
b101000 H"
1!
#37000
0!
#37500
b101100 m
b101100 v"
b101000 D
b101000 3"
b101000 u"
b101100 C
b101100 2"
b101100 b"
b101100 t"
1!
#38000
0!
#38500
b110000 k
b110000 U"
b110000 %#
b101100 -
b101100 g"
b101100 q"
b101100 n
b101100 T"
b101100 ^"
b101100 ##
1!
#39000
0!
#39500
b110000 I
b110000 F"
b110000 Y"
b101100 J
b101100 G"
b101100 W"
1!
#40000
0!
#40500
b101100 l
b101100 z
b101100 )"
b110000 f
b110000 ,"
b110000 M"
b101100 g
b101100 y
b101100 H"
1!
#41000
0!
#41500
b110000 m
b110000 v"
b101100 D
b101100 3"
b101100 u"
b110000 C
b110000 2"
b110000 b"
b110000 t"
1!
#42000
0!
#42500
b110100 k
b110100 U"
b110100 %#
b110000 -
b110000 g"
b110000 q"
b110000 n
b110000 T"
b110000 ^"
b110000 ##
1!
#43000
0!
#43500
b110100 I
b110100 F"
b110100 Y"
b110000 J
b110000 G"
b110000 W"
1!
#44000
0!
#44500
b110000 l
b110000 z
b110000 )"
b110100 f
b110100 ,"
b110100 M"
b110000 g
b110000 y
b110000 H"
1!
#45000
0!
#45500
b110100 m
b110100 v"
b110000 D
b110000 3"
b110000 u"
b110100 C
b110100 2"
b110100 b"
b110100 t"
1!
#46000
0!
#46500
b111000 k
b111000 U"
b111000 %#
b110100 -
b110100 g"
b110100 q"
b110100 n
b110100 T"
b110100 ^"
b110100 ##
1!
#47000
0!
#47500
b111000 I
b111000 F"
b111000 Y"
b110100 J
b110100 G"
b110100 W"
1!
#48000
0!
#48500
b110100 l
b110100 z
b110100 )"
b111000 f
b111000 ,"
b111000 M"
b110100 g
b110100 y
b110100 H"
1!
#49000
0!
