sim.vcd
$date
	Wed May  3 11:13:11 2023
$end
$version
	Icarus Verilog
$end
$timescale
	10ps
$end
$scope module riscv_tb $end
$var reg 1 ! clk $end
$var reg 1 " rstn $end
$var integer 32 # i [31:0] $end
$scope module my_cpu $end
$var wire 32 $ NEXT_PC [31:0] $end
$var wire 1 ! clk $end
$var wire 32 % ex_alu_in1 [31:0] $end
$var wire 1 " rstn $end
$var wire 5 & writereg [4:0] $end
$var wire 32 ' write_data_ [31:0] $end
$var wire 32 ( write_data [31:0] $end
$var wire 5 ) wb_writereg [4:0] $end
$var wire 1 * wb_reg_write $end
$var wire 32 + wb_read_data [31:0] $end
$var wire 1 , wb_mem_to_reg $end
$var wire 2 - wb_jump [1:0] $end
$var wire 32 . wb_alu_result [31:0] $end
$var wire 32 / wb_PC_PLUS_4 [31:0] $end
$var wire 32 0 sextimm [31:0] $end
$var wire 1 1 reg_write $end
$var wire 5 2 readreg2 [4:0] $end
$var wire 5 3 readreg1 [4:0] $end
$var wire 32 4 readdata2 [31:0] $end
$var wire 32 5 readdata1 [31:0] $end
$var wire 32 6 read_data [31:0] $end
$var wire 7 7 opcode [6:0] $end
$var wire 5 8 mem_writereg [4:0] $end
$var wire 1 9 mem_write $end
$var wire 1 : mem_to_reg $end
$var wire 1 ; mem_taken $end
$var wire 1 < mem_reg_write $end
$var wire 32 = mem_readdata2 [31:0] $end
$var wire 1 > mem_read $end
$var wire 1 ? mem_mem_write $end
$var wire 1 @ mem_mem_to_reg $end
$var wire 1 A mem_mem_read $end
$var wire 2 B mem_jump [1:0] $end
$var wire 3 C mem_funct3 [2:0] $end
$var wire 32 D mem_alu_result [31:0] $end
$var wire 32 E mem_PC_PLUS_4 [31:0] $end
$var wire 32 F mem_PC_BRANCH [31:0] $end
$var wire 2 G maskmode [1:0] $end
$var wire 2 H jump [1:0] $end
$var wire 32 I instruction [31:0] $end
$var wire 32 J id_instruction [31:0] $end
$var wire 32 K id_PC_PLUS_4 [31:0] $end
$var wire 32 L id_PC [31:0] $end
$var wire 7 M funct7 [6:0] $end
$var wire 3 N funct3 [2:0] $end
$var wire 5 O ex_writereg [4:0] $end
$var wire 1 P ex_taken $end
$var wire 32 Q ex_sextimm [31:0] $end
$var wire 1 R ex_reg_write $end
$var wire 5 S ex_readreg2 [4:0] $end
$var wire 5 T ex_readreg1 [4:0] $end
$var wire 32 U ex_readdata2 [31:0] $end
$var wire 32 V ex_readdata1 [31:0] $end
$var wire 1 W ex_mem_write $end
$var wire 1 X ex_mem_to_reg $end
$var wire 1 Y ex_mem_read $end
$var wire 2 Z ex_jump [1:0] $end
$var wire 7 [ ex_funct7 [6:0] $end
$var wire 3 \ ex_funct3 [2:0] $end
$var wire 1 ] ex_branch $end
$var wire 1 ^ ex_alu_src $end
$var wire 32 _ ex_alu_result [31:0] $end
$var wire 2 ` ex_alu_op [1:0] $end
$var wire 32 a ex_alu_in2 [31:0] $end
$var wire 4 b ex_alu_func [3:0] $end
$var wire 1 c ex_alu_check $end
$var wire 32 d ex_PC_PLUS_4 [31:0] $end
$var wire 32 e ex_PC [31:0] $end
$var wire 1 f branch $end
$var wire 1 g alu_src $end
$var wire 2 h alu_op [1:0] $end
$var wire 32 i PC_PLUS_4 [31:0] $end
$var wire 32 j PC_BRANCH [31:0] $end
$var reg 32 k PC [31:0] $end
$scope module m_alu $end
$var wire 32 l in_a [31:0] $end
$var wire 32 m in_b [31:0] $end
$var wire 4 n alu_func [3:0] $end
$var reg 1 c check $end
$var reg 32 o result [31:0] $end
$upscope $end
$scope module m_alu_control $end
$var wire 7 p funct7 [6:0] $end
$var wire 3 q funct3 [2:0] $end
$var wire 4 r funct [3:0] $end
$var wire 2 s alu_op [1:0] $end
$var reg 4 t alu_func [3:0] $end
$upscope $end
$scope module m_branch_control $end
$var wire 1 c check $end
$var wire 1 ] branch $end
$var reg 1 P taken $end
$upscope $end
$scope module m_branch_target_adder $end
$var wire 32 u in_b [31:0] $end
$var wire 32 v in_a [31:0] $end
$var reg 32 w result [31:0] $end
$upscope $end
$scope module m_control $end
$var wire 7 x opcode [6:0] $end
$var wire 1 1 reg_write $end
$var wire 1 9 mem_write $end
$var wire 1 : mem_to_reg $end
$var wire 1 > mem_read $end
$var wire 2 y jump [1:0] $end
$var wire 1 f branch $end
$var wire 1 g alu_src $end
$var wire 2 z alu_op [1:0] $end
$var reg 10 { controls [9:0] $end
$upscope $end
$scope module m_data_memory $end
$var wire 1 ! clk $end
$var wire 2 | maskmode [1:0] $end
$var wire 1 } sext $end
$var wire 32 ~ write_data [31:0] $end
$var wire 1 ? mem_write $end
$var wire 1 A mem_read $end
$var wire 4 !" funct3 [3:0] $end
$var wire 8 "" address_internal [7:0] $end
$var wire 32 #" address [31:0] $end
$var reg 32 $" read_data [31:0] $end
$upscope $end
$scope module m_exmem_reg $end
$var wire 1 ! clk $end
$var wire 32 %" ex_alu_result [31:0] $end
$var wire 32 &" ex_pc_target [31:0] $end
$var wire 1 P ex_taken $end
$var wire 32 '" ex_writedata [31:0] $end
$var wire 1 R ex_regwrite $end
$var wire 5 (" ex_rd [4:0] $end
$var wire 32 )" ex_pc_plus_4 [31:0] $end
$var wire 1 W ex_memwrite $end
$var wire 1 X ex_memtoreg $end
$var wire 1 Y ex_memread $end
$var wire 2 *" ex_jump [1:0] $end
$var wire 3 +" ex_funct3 [2:0] $end
$var reg 32 ," mem_alu_result [31:0] $end
$var reg 3 -" mem_funct3 [2:0] $end
$var reg 2 ." mem_jump [1:0] $end
$var reg 1 A mem_memread $end
$var reg 1 @ mem_memtoreg $end
$var reg 1 ? mem_memwrite $end
$var reg 32 /" mem_pc_plus_4 [31:0] $end
$var reg 32 0" mem_pc_target [31:0] $end
$var reg 5 1" mem_rd [4:0] $end
$var reg 1 < mem_regwrite $end
$var reg 1 ; mem_taken $end
$var reg 32 2" mem_writedata [31:0] $end
$upscope $end
$scope module m_forwarding $end
$upscope $end
$scope module m_hazard $end
$upscope $end
$scope module m_idex_reg $end
$var wire 1 ! clk $end
$var wire 2 3" id_aluop [1:0] $end
$var wire 1 g id_alusrc $end
$var wire 1 f id_branch $end
$var wire 3 4" id_funct3 [2:0] $end
$var wire 7 5" id_funct7 [6:0] $end
$var wire 2 6" id_jump [1:0] $end
$var wire 1 > id_memread $end
$var wire 1 : id_memtoreg $end
$var wire 1 9 id_memwrite $end
$var wire 5 7" id_rd [4:0] $end
$var wire 1 1 id_regwrite $end
$var wire 5 8" id_rs1 [4:0] $end
$var wire 5 9" id_rs2 [4:0] $end
$var wire 32 :" id_sextimm [31:0] $end
$var wire 32 ;" id_readdata2 [31:0] $end
$var wire 32 <" id_readdata1 [31:0] $end
$var wire 32 =" id_pc_plus_4 [31:0] $end
$var wire 32 >" id_PC [31:0] $end
$var reg 32 ?" ex_PC [31:0] $end
$var reg 2 @" ex_aluop [1:0] $end
$var reg 1 ^ ex_alusrc $end
$var reg 1 ] ex_branch $end
$var reg 3 A" ex_funct3 [2:0] $end
$var reg 7 B" ex_funct7 [6:0] $end
$var reg 2 C" ex_jump [1:0] $end
$var reg 1 Y ex_memread $end
$var reg 1 X ex_memtoreg $end
$var reg 1 W ex_memwrite $end
$var reg 32 D" ex_pc_plus_4 [31:0] $end
$var reg 5 E" ex_rd [4:0] $end
$var reg 32 F" ex_readdata1 [31:0] $end
$var reg 32 G" ex_readdata2 [31:0] $end
$var reg 1 R ex_regwrite $end
$var reg 5 H" ex_rs1 [4:0] $end
$var reg 5 I" ex_rs2 [4:0] $end
$var reg 32 J" ex_sextimm [31:0] $end
$upscope $end
$scope module m_ifid_reg $end
$var wire 1 ! clk $end
$var wire 32 K" if_PC [31:0] $end
$var wire 32 L" if_pc_plus_4 [31:0] $end
$var wire 32 M" if_instruction [31:0] $end
$var reg 32 N" id_PC [31:0] $end
$var reg 32 O" id_instruction [31:0] $end
$var reg 32 P" id_pc_plus_4 [31:0] $end
$upscope $end
$scope module m_immediate_generator $end
$var wire 32 Q" instruction [31:0] $end
$var wire 7 R" opcode [6:0] $end
$var wire 3 S" funct3 [2:0] $end
$var reg 32 T" sextimm [31:0] $end
$upscope $end
$scope module m_instruction_memory $end
$var wire 32 U" address [31:0] $end
$var reg 32 V" instruction [31:0] $end
$upscope $end
$scope module m_memwb_reg $end
$var wire 1 ! clk $end
$var wire 32 W" mem_alu_result [31:0] $end
$var wire 2 X" mem_jump [1:0] $end
$var wire 1 @ mem_memtoreg $end
$var wire 32 Y" mem_pc_plus_4 [31:0] $end
$var wire 5 Z" mem_rd [4:0] $end
$var wire 32 [" mem_readdata [31:0] $end
$var wire 1 < mem_regwrite $end
$var reg 32 \" wb_alu_result [31:0] $end
$var reg 2 ]" wb_jump [1:0] $end
$var reg 1 , wb_memtoreg $end
$var reg 32 ^" wb_pc_plus_4 [31:0] $end
$var reg 5 _" wb_rd [4:0] $end
$var reg 32 `" wb_readdata [31:0] $end
$var reg 1 * wb_regwrite $end
$upscope $end
$scope module m_mux_2x1 $end
$var wire 32 a" in1 [31:0] $end
$var wire 32 b" in2 [31:0] $end
$var wire 1 ^ select $end
$var reg 32 c" out [31:0] $end
$upscope $end
$scope module m_mux_2x1_2 $end
$var wire 32 d" in1 [31:0] $end
$var wire 32 e" in2 [31:0] $end
$var wire 1 , select $end
$var reg 32 f" out [31:0] $end
$upscope $end
$scope module m_mux_2x1_3 $end
$var wire 32 g" in1 [31:0] $end
$var wire 32 h" in2 [31:0] $end
$var wire 1 i" select $end
$var reg 32 j" out [31:0] $end
$upscope $end
$scope module m_pc_plus_4_adder $end
$var wire 32 k" in_a [31:0] $end
$var wire 32 l" in_b [31:0] $end
$var reg 32 m" result [31:0] $end
$upscope $end
$scope module m_register_file $end
$var wire 1 ! clk $end
$var wire 32 n" readdata1 [31:0] $end
$var wire 32 o" readdata2 [31:0] $end
$var wire 5 p" readreg1 [4:0] $end
$var wire 5 q" readreg2 [4:0] $end
$var wire 1 * wen $end
$var wire 32 r" writedata [31:0] $end
$var wire 5 s" writereg [4:0] $end
$upscope $end
$upscope $end
$upscope $end
$enddefinitions $end
#0
$dumpvars
bx s"
bx r"
bx q"
bx p"
bx o"
bx n"
bx m"
b100 l"
bx k"
bx j"
xi"
bx h"
bx g"
bx f"
bx e"
bx d"
bx c"
bx b"
bx a"
bx `"
bx _"
bx ^"
bx ]"
bx \"
b0 ["
bx Z"
bx Y"
bx X"
bx W"
bx V"
bx U"
bx T"
bx S"
bx R"
bx Q"
bx P"
bx O"
bx N"
bx M"
bx L"
bx K"
bx J"
bx I"
bx H"
bx G"
bx F"
bx E"
bx D"
bx C"
bx B"
bx A"
bx @"
bx ?"
bx >"
bx ="
bx <"
bx ;"
bx :"
bx 9"
bx 8"
bx 7"
bx 6"
bx 5"
bx 4"
bx 3"
bx 2"
bx 1"
bx 0"
bx /"
bx ."
bx -"
bx ,"
bx +"
bx *"
bx )"
bx ("
bx '"
bx &"
bx %"
b0 $"
bx #"
bx ""
b0xxx !"
bx ~
x}
bx |
bx {
bx z
bx y
bx x
bx w
bx v
bx u
bx t
bx s
bx r
bx q
bx p
bx o
bx n
bx m
bx l
bx k
bx j
bx i
bx h
xg
xf
bx e
bx d
xc
bx b
bx a
bx `
bx _
x^
x]
bx \
bx [
bx Z
xY
xX
xW
bx V
bx U
bx T
bx S
xR
bx Q
xP
bx O
bx N
bx M
bx L
bx K
bx J
bx I
bx H
bx G
bx F
bx E
bx D
bx C
bx B
xA
x@
x?
x>
bx =
x<
x;
x:
x9
bx 8
bx 7
b0 6
bx 5
bx 4
bx 3
bx 2
x1
bx 0
bx /
bx .
bx -
x,
bx +
x*
bx )
bx (
bx '
bx &
bx %
bx $
bx #
0"
0!
$end
#500
b0 (
b0 j"
b0 r"
b0 '
b0 f"
b0 g"
b0 I
b0 M"
b0 V"
b100 $
b100 i
b100 L"
b100 m"
b0 +
b0 `"
b0 e"
b0 k
b0 K"
b0 U"
b0 k"
1!
#1000
0!
#1500
b0 H
b0 y
b0 6"
0f
0>
0:
b0 h
b0 z
b0 3"
09
0g
01
b0 {
b0 0
b0 :"
b0 T"
b0 R"
b0 S"
b0 &
b0 7"
b0 4
b0 ;"
b0 o"
b0 2
b0 9"
b0 q"
b0 5
b0 <"
b0 n"
b0 3
b0 8"
b0 p"
b0 N
b0 4"
b0 M
b0 5"
b0 7
b0 x
b0 J
b0 O"
b0 Q"
b100 K
b100 ="
b100 P"
b0 L
b0 >"
b0 N"
1!
#2000
0!
#2500
0c
b0 _
b0 o
b0 %"
b0 a
b0 m
b0 c"
b0 b
b0 n
b0 t
0P
b0 j
b0 w
b0 &"
b0 O
b0 ("
b0 E"
b0 S
b0 I"
b0 T
b0 H"
b0 U
b0 '"
b0 G"
b0 a"
b0 %
b0 l
b0 V
b0 F"
b0 r
b0 \
b0 q
b0 +"
b0 A"
b0 [
b0 p
b0 B"
b0 Q
b0 u
b0 J"
b0 b"
0R
0X
0W
0Y
0^
b0 `
b0 s
b0 @"
0]
b0 Z
b0 *"
b0 C"
b100 d
b100 )"
b100 D"
b0 e
b0 v
b0 ?"
1!
#3000
0!
#3500
b0 ""
0}
b0 !"
b0 G
b0 |
b0 8
b0 1"
b0 Z"
b0 =
b0 ~
b0 2"
b0 D
b0 #"
b0 ,"
b0 W"
b0 C
b0 -"
0<
0@
0?
0A
b0 B
b0 ."
b0 X"
0;
b0 F
b0 0"
b100 E
b100 /"
b100 Y"
1!
#4000
0!
#4500
0i"
b0 )
b0 _"
b0 s"
b0 .
b0 \"
b0 d"
0*
0,
b0 -
b0 ]"
b100 /
b100 ^"
b100 h"
1!
#5000
0!
#5500
1!
#6000
0!
1"
#6500
b1000001000100000110011 I
b1000001000100000110011 M"
b1000001000100000110011 V"
b1000 $
b1000 i
b1000 L"
b1000 m"
b100 k
b100 K"
b100 U"
b100 k"
1!
#7000
0!
#7500
b10 h
b10 z
b10 3"
11
b10001 {
b110000000100010110011 I
b110000000100010110011 M"
b110000000100010110011 V"
b1100 $
b1100 i
b1100 L"
b1100 m"
b110011 R"
b10000 &
b10000 7"
b10 4
b10 ;"
b10 o"
b10 2
b10 9"
b10 q"
b1 5
b1 <"
b1 n"
b1 3
b1 8"
b1 p"
b110011 7
b110011 x
b1000 k
b1000 K"
b1000 U"
b1000 k"
b1000001000100000110011 J
b1000001000100000110011 O"
b1000001000100000110011 Q"
b1000 K
b1000 ="
b1000 P"
b100 L
b100 >"
b100 N"
1!
#8000
0!
#8500
b10001 &
b10001 7"
b1 4
b1 ;"
b1 o"
b1 2
b1 9"
b1 q"
b0 5
b0 <"
b0 n"
b10000 3
b10000 8"
b10000 p"
b10 a
b10 m
b10 c"
b11 _
b11 o
b11 %"
b100 j
b100 w
b100 &"
b1100010000100000110011 I
b1100010000100000110011 M"
b1100010000100000110011 V"
b10000 $
b10000 i
b10000 L"
b10000 m"
b110000000100010110011 J
b110000000100010110011 O"
b110000000100010110011 Q"
b1100 K
b1100 ="
b1100 P"
b1000 L
b1000 >"
b1000 N"
b10000 O
b10000 ("
b10000 E"
b10 S
b10 I"
b1 T
b1 H"
b10 U
b10 '"
b10 G"
b10 a"
b1 %
b1 l
b1 V
b1 F"
1R
b10 `
b10 s
b10 @"
b1000 d
b1000 )"
b1000 D"
b100 e
b100 v
b100 ?"
b1100 k
b1100 K"
b1100 U"
b1100 k"
1!
#9000
0!
#9500
b10100100000100000110011 I
b10100100000100000110011 M"
b10100100000100000110011 V"
b10100 $
b10100 i
b10100 L"
b10100 m"
b1 a
b1 m
b1 c"
b1 _
b1 o
b1 %"
b1000 j
b1000 w
b1000 &"
b10000 &
b10000 7"
b11 4
b11 ;"
b11 o"
b11 2
b11 9"
b11 q"
b10 5
b10 <"
b10 n"
b10 3
b10 8"
b10 p"
b10000 k
b10000 K"
b10000 U"
b10000 k"
b10000 8
b10000 1"
b10000 Z"
b10 =
b10 ~
b10 2"
b11 D
b11 #"
b11 ,"
b11 W"
1<
b100 F
b100 0"
b1000 E
b1000 /"
b1000 Y"
b10001 O
b10001 ("
b10001 E"
b1 S
b1 I"
b10000 T
b10000 H"
b1 U
b1 '"
b1 G"
b1 a"
b0 %
b0 l
b0 V
b0 F"
b1100 d
b1100 )"
b1100 D"
b1000 e
b1000 v
b1000 ?"
b1100010000100000110011 J
b1100010000100000110011 O"
b1100010000100000110011 Q"
b10000 K
b10000 ="
b10000 P"
b1100 L
b1100 >"
b1100 N"
1!
#10000
0!
#10500
b11 (
b11 j"
b11 r"
b101 4
b101 ;"
b101 o"
b101 2
b101 9"
b101 q"
b100 5
b100 <"
b100 n"
b100 3
b100 8"
b100 p"
b11 a
b11 m
b11 c"
b101 _
b101 o
b101 %"
b1100 j
b1100 w
b1100 &"
b11 '
b11 f"
b11 g"
b110010000100110110011 I
b110010000100110110011 M"
b110010000100110110011 V"
b11000 $
b11000 i
b11000 L"
b11000 m"
b10100100000100000110011 J
b10100100000100000110011 O"
b10100100000100000110011 Q"
b10100 K
b10100 ="
b10100 P"
b10000 L
b10000 >"
b10000 N"
b10000 O
b10000 ("
b10000 E"
b11 S
b11 I"
b10 T
b10 H"
b11 U
b11 '"
b11 G"
b11 a"
b10 %
b10 l
b10 V
b10 F"
b10000 d
b10000 )"
b10000 D"
b1100 e
b1100 v
b1100 ?"
b10001 8
b10001 1"
b10001 Z"
b1 =
b1 ~
b1 2"
b1 D
b1 #"
b1 ,"
b1 W"
b1000 F
b1000 0"
b1100 E
b1100 /"
b1100 Y"
b10000 )
b10000 _"
b10000 s"
b11 .
b11 \"
b11 d"
1*
b1000 /
b1000 ^"
b1000 h"
b10100 k
b10100 K"
b10100 U"
b10100 k"
1!
#11000
0!
#11500
b1 (
b1 j"
b1 r"
b110010000101000110011 I
b110010000101000110011 M"
b110010000101000110011 V"
b11100 $
b11100 i
b11100 L"
b11100 m"
b1 '
b1 f"
b1 g"
b1 ""
b101 a
b101 m
b101 c"
b1001 _
b1001 o
b1001 %"
b10000 j
b10000 w
b10000 &"
b10011 &
b10011 7"
b1 4
b1 ;"
b1 o"
b1 2
b1 9"
b1 q"
b0 5
b0 <"
b0 n"
b10010 3
b10010 8"
b10010 p"
b11000 k
b11000 K"
b11000 U"
b11000 k"
b10001 )
b10001 _"
b10001 s"
b1 .
b1 \"
b1 d"
b1100 /
b1100 ^"
b1100 h"
b10000 8
b10000 1"
b10000 Z"
b11 =
b11 ~
b11 2"
b101 D
b101 #"
b101 ,"
b101 W"
b1100 F
b1100 0"
b10000 E
b10000 /"
b10000 Y"
b101 S
b101 I"
b100 T
b100 H"
b101 U
b101 '"
b101 G"
b101 a"
b100 %
b100 l
b100 V
b100 F"
b10100 d
b10100 )"
b10100 D"
b10000 e
b10000 v
b10000 ?"
b110010000100110110011 J
b110010000100110110011 O"
b110010000100110110011 Q"
b11000 K
b11000 ="
b11000 P"
b10100 L
b10100 >"
b10100 N"
1!
#12000
0!
#12500
b101 (
b101 j"
b101 r"
b10100 &
b10100 7"
b1 a
b1 m
b1 c"
b1 _
b1 o
b1 %"
b10100 j
b10100 w
b10100 &"
b10 ""
b101 '
b101 f"
b101 g"
b100010101010000011 I
b100010101010000011 M"
b100010101010000011 V"
b100000 $
b100000 i
b100000 L"
b100000 m"
b110010000101000110011 J
b110010000101000110011 O"
b110010000101000110011 Q"
b11100 K
b11100 ="
b11100 P"
b11000 L
b11000 >"
b11000 N"
b10011 O
b10011 ("
b10011 E"
b1 S
b1 I"
b10010 T
b10010 H"
b1 U
b1 '"
b1 G"
b1 a"
b0 %
b0 l
b0 V
b0 F"
b11000 d
b11000 )"
b11000 D"
b10100 e
b10100 v
b10100 ?"
b101 =
b101 ~
b101 2"
b1001 D
b1001 #"
b1001 ,"
b1001 W"
b10000 F
b10000 0"
b10100 E
b10100 /"
b10100 Y"
b10000 )
b10000 _"
b10000 s"
b101 .
b101 \"
b101 d"
b10000 /
b10000 ^"
b10000 h"
b11100 k
b11100 K"
b11100 U"
b11100 k"
1!
#13000
0!
#13500
1>
1:
b0 h
b0 z
b0 3"
1g
b1001 (
b1001 j"
b1001 r"
b1100011 {
b1000001000101100110011 I
b1000001000101100110011 M"
b1000001000101100110011 V"
b100100 $
b100100 i
b100100 L"
b100100 m"
b1001 '
b1001 f"
b1001 g"
b0 ""
b11000 j
b11000 w
b11000 &"
b11 R"
b10 S"
b10101 &
b10101 7"
b0 4
b0 ;"
b0 o"
b0 2
b0 9"
b0 q"
b100 5
b100 <"
b100 n"
b100 3
b100 8"
b100 p"
b10 N
b10 4"
b11 7
b11 x
b100000 k
b100000 K"
b100000 U"
b100000 k"
b1001 .
b1001 \"
b1001 d"
b10100 /
b10100 ^"
b10100 h"
b10011 8
b10011 1"
b10011 Z"
b1 =
b1 ~
b1 2"
b1 D
b1 #"
b1 ,"
b1 W"
b10100 F
b10100 0"
b11000 E
b11000 /"
b11000 Y"
b10100 O
b10100 ("
b10100 E"
b11100 d
b11100 )"
b11100 D"
b11000 e
b11000 v
b11000 ?"
b100010101010000011 J
b100010101010000011 O"
b100010101010000011 Q"
b100000 K
b100000 ="
b100000 P"
b11100 L
b11100 >"
b11100 N"
1!
#14000
0!
#14500
0>
0:
b10 h
b10 z
b10 3"
0g
b10001 {
b1 (
b1 j"
b1 r"
b110011 R"
b0 S"
b10110 &
b10110 7"
b10 4
b10 ;"
b10 o"
b10 2
b10 9"
b10 q"
b1 5
b1 <"
b1 n"
b1 3
b1 8"
b1 p"
b0 N
b0 4"
b110011 7
b110011 x
b100 _
b100 o
b100 %"
b0 a
b0 m
b0 c"
b11100 j
b11100 w
b11100 &"
b1 '
b1 f"
b1 g"
b1000001000101110110011 I
b1000001000101110110011 M"
b1000001000101110110011 V"
b101000 $
b101000 i
b101000 L"
b101000 m"
b1000001000101100110011 J
b1000001000101100110011 O"
b1000001000101100110011 Q"
b100100 K
b100100 ="
b100100 P"
b100000 L
b100000 >"
b100000 N"
b10101 O
b10101 ("
b10101 E"
b0 S
b0 I"
b100 T
b100 H"
b0 U
b0 '"
b0 G"
b0 a"
b100 %
b100 l
b100 V
b100 F"
b10 r
b10 \
b10 q
b10 +"
b10 A"
1X
1Y
1^
b0 `
b0 s
b0 @"
b100000 d
b100000 )"
b100000 D"
b11100 e
b11100 v
b11100 ?"
b10100 8
b10100 1"
b10100 Z"
b11000 F
b11000 0"
b11100 E
b11100 /"
b11100 Y"
b10011 )
b10011 _"
b10011 s"
b1 .
b1 \"
b1 d"
b11000 /
b11000 ^"
b11000 h"
b100100 k
b100100 K"
b100100 U"
b100100 k"
1!
#15000
0!
#15500
b100010110000000011 I
b100010110000000011 M"
b100010110000000011 V"
b101100 $
b101100 i
b101100 L"
b101100 m"
b1 ""
b10 !"
b10 G
b10 |
b11 _
b11 o
b11 %"
b10 a
b10 m
b10 c"
b100000 j
b100000 w
b100000 &"
b10111 &
b10111 7"
b101000 k
b101000 K"
b101000 U"
b101000 k"
b10100 )
b10100 _"
b10100 s"
b11100 /
b11100 ^"
b11100 h"
b10101 8
b10101 1"
b10101 Z"
b0 =
b0 ~
b0 2"
b100 D
b100 #"
b100 ,"
b100 W"
b10 C
b10 -"
1@
1A
b11100 F
b11100 0"
b100000 E
b100000 /"
b100000 Y"
b10110 O
b10110 ("
b10110 E"
b10 S
b10 I"
b1 T
b1 H"
b10 U
b10 '"
b10 G"
b10 a"
b1 %
b1 l
b1 V
b1 F"
b0 r
b0 \
b0 q
b0 +"
b0 A"
0X
0Y
0^
b10 `
b10 s
b10 @"
b100100 d
b100100 )"
b100100 D"
b100000 e
b100000 v
b100000 ?"
b1000001000101110110011 J
b1000001000101110110011 O"
b1000001000101110110011 Q"
b101000 K
b101000 ="
b101000 P"
b100100 L
b100100 >"
b100100 N"
1!
#16000
0!
#16500
1>
1:
b0 h
b0 z
b0 3"
1g
b1100011 {
b0 (
b0 j"
b0 r"
b11 R"
b10 S"
b11000 &
b11000 7"
b0 4
b0 ;"
b0 o"
b0 2
b0 9"
b0 q"
b100 5
b100 <"
b100 n"
b100 3
b100 8"
b100 p"
b10 N
b10 4"
b11 7
b11 x
b100100 j
b100100 w
b100100 &"
b0 ""
b0 !"
b0 G
b0 |
b0 '
b0 f"
b0 g"
b1000001000110010110011 I
b1000001000110010110011 M"
b1000001000110010110011 V"
b110000 $
b110000 i
b110000 L"
b110000 m"
b100010110000000011 J
b100010110000000011 O"
b100010110000000011 Q"
b101100 K
b101100 ="
b101100 P"
b101000 L
b101000 >"
b101000 N"
b10111 O
b10111 ("
b10111 E"
b101000 d
b101000 )"
b101000 D"
b100100 e
b100100 v
b100100 ?"
b10110 8
b10110 1"
b10110 Z"
b10 =
b10 ~
b10 2"
b11 D
b11 #"
b11 ,"
b11 W"
b0 C
b0 -"
0@
0A
b100000 F
b100000 0"
b100100 E
b100100 /"
b100100 Y"
b10101 )
b10101 _"
b10101 s"
b100 .
b100 \"
b100 d"
1,
b100000 /
b100000 ^"
b100000 h"
b101100 k
b101100 K"
b101100 U"
b101100 k"
1!
#17000
0!
#17500
0>
0:
b10 h
b10 z
b10 3"
0g
b11 (
b11 j"
b11 r"
b10001 {
b1000001000110100110011 I
b1000001000110100110011 M"
b1000001000110100110011 V"
b110100 $
b110100 i
b110100 L"
b110100 m"
b11 '
b11 f"
b11 g"
b100 _
b100 o
b100 %"
b0 a
b0 m
b0 c"
b101000 j
b101000 w
b101000 &"
b110011 R"
b0 S"
b11001 &
b11001 7"
b10 4
b10 ;"
b10 o"
b10 2
b10 9"
b10 q"
b1 5
b1 <"
b1 n"
b1 3
b1 8"
b1 p"
b0 N
b0 4"
b110011 7
b110011 x
b110000 k
b110000 K"
b110000 U"
b110000 k"
b10110 )
b10110 _"
b10110 s"
b11 .
b11 \"
b11 d"
0,
b100100 /
b100100 ^"
b100100 h"
b10111 8
b10111 1"
b10111 Z"
b100100 F
b100100 0"
b101000 E
b101000 /"
b101000 Y"
b11000 O
b11000 ("
b11000 E"
b0 S
b0 I"
b100 T
b100 H"
b0 U
b0 '"
b0 G"
b0 a"
b100 %
b100 l
b100 V
b100 F"
b10 r
b10 \
b10 q
b10 +"
b10 A"
1X
1Y
1^
b0 `
b0 s
b0 @"
b101100 d
b101100 )"
b101100 D"
b101000 e
b101000 v
b101000 ?"
b1000001000110010110011 J
b1000001000110010110011 O"
b1000001000110010110011 Q"
b110000 K
b110000 ="
b110000 P"
b101100 L
b101100 >"
b101100 N"
1!
#18000
0!
#18500
b11010 &
b11010 7"
b11 _
b11 o
b11 %"
b10 a
b10 m
b10 c"
b101100 j
b101100 w
b101100 &"
b1 ""
b10 !"
b10 G
b10 |
b1101111 I
b1101111 M"
b1101111 V"
b111000 $
b111000 i
b111000 L"
b111000 m"
b1000001000110100110011 J
b1000001000110100110011 O"
b1000001000110100110011 Q"
b110100 K
b110100 ="
b110100 P"
b110000 L
b110000 >"
b110000 N"
b11001 O
b11001 ("
b11001 E"
b10 S
b10 I"
b1 T
b1 H"
b10 U
b10 '"
b10 G"
b10 a"
b1 %
b1 l
b1 V
b1 F"
b0 r
b0 \
b0 q
b0 +"
b0 A"
0X
0Y
0^
b10 `
b10 s
b10 @"
b110000 d
b110000 )"
b110000 D"
b101100 e
b101100 v
b101100 ?"
b11000 8
b11000 1"
b11000 Z"
b0 =
b0 ~
b0 2"
b100 D
b100 #"
b100 ,"
b100 W"
b10 C
b10 -"
1@
1A
b101000 F
b101000 0"
b101100 E
b101100 /"
b101100 Y"
b10111 )
b10111 _"
b10111 s"
b101000 /
b101000 ^"
b101000 h"
b110100 k
b110100 K"
b110100 U"
b110100 k"
1!
#19000
0!
#19500
b10 H
b10 y
b10 6"
b0 h
b0 z
b0 3"
b0 (
b0 j"
b0 r"
b1000000001 {
bx I
bx M"
bx V"
b111100 $
b111100 i
b111100 L"
b111100 m"
b0 '
b0 f"
b0 g"
b0 ""
b0 !"
b0 G
b0 |
b110000 j
b110000 w
b110000 &"
b1101111 R"
b0 &
b0 7"
b0 4
b0 ;"
b0 o"
b0 2
b0 9"
b0 q"
b0 5
b0 <"
b0 n"
b0 3
b0 8"
b0 p"
b1101111 7
b1101111 x
b111000 k
b111000 K"
b111000 U"
b111000 k"
b11000 )
b11000 _"
b11000 s"
b100 .
b100 \"
b100 d"
1,
b101100 /
b101100 ^"
b101100 h"
b11001 8
b11001 1"
b11001 Z"
b10 =
b10 ~
b10 2"
b11 D
b11 #"
b11 ,"
b11 W"
b0 C
b0 -"
0@
0A
b101100 F
b101100 0"
b110000 E
b110000 /"
b110000 Y"
b11010 O
b11010 ("
b11010 E"
b110100 d
b110100 )"
b110100 D"
b110000 e
b110000 v
b110000 ?"
b1101111 J
b1101111 O"
b1101111 Q"
b111000 K
b111000 ="
b111000 P"
b110100 L
b110100 >"
b110100 N"
1!
#20000
0!
